{
    "list": [
        {
            "key": "1630925132000_1809",
            "icon": "icon-wenzishezhi-",
            "name": "",
            "type": "title",
            "model": "title_1630925132000_1809",
            "rules": [],
            "options": {
                "remoteFunc": "func_1630925132000_1809",
                "customClass": "",
                "defaultValue": "Expériences professionnelles"
            }
        },
        {
            "key": "1639755176000_47641",
            "icon": "icon-zidingyishuju",
            "name": "Expérience",
            "type": "experience",
            "model": "experience_1639755176000_47641",
            "rules": [],
            "options": {
                "remoteFunc": "func_1639755176000_47641",
                "defaultValue": [
                    {
                        "place": null,
                        "title": null,
                        "company": null,
                        "endDate": null,
                        "startDate": null,
                        "description": ""
                    }
                ]
            }
        }
    ],
    "config": {
        "size": "small",
        "labelWidth": 100,
        "labelPosition": "top"
    }
}