{
  "list": [
    {
      "key": "1630923830000_63185",
      "icon": "icon-wenzishezhi-",
      "name": "",
      "type": "title",
      "model": "title_1630923830000_63185",
      "rules": [],
      "options": {
        "remoteFunc": "func_1630923830000_63185",
        "customClass": "",
        "defaultValue": "Coordonnées"
      }
    },
    {
      "key": "1629297943000_72162",
      "icon": "icon-wenzishezhi-",
      "name": "Adresse permanente",
      "type": "text",
      "model": "text_1629297943000_72162",
      "rules": [],
      "options": {
        "remoteFunc": "func_1629297943000_72162",
        "customClass": "",
        "defaultValue": ""
      }
    },
    {
      "key": "1629297483000_37647",
      "icon": "icon-grid-",
      "name": "Grid",
      "type": "grid",
      "model": "grid_1629297483000_37647",
      "rules": [],
      "columns": [
        {
          "list": [
            {
              "key": "1639502990000_9482",
              "icon": "fa fa-phone",
              "name": "Contact",
              "type": "phone",
              "model": "phone_number_1639502990000_9482",
              "rules": [
                {
                  "type": "string",
                  "message": "ContactFormat invalide"
                }
              ],
              "options": {
                "width": "100%",
                "pattern": "",
                "dataType": "string",
                "disabled": false,
                "required": false,
                "remoteFunc": "func_1639502990000_9482",
                "placeholder": "Téléphone",
                "defaultValue": "+93"
              }
            }
          ],
          "span": 12
        },
        {
          "list": [
            {
              "key": "1639503023000_79617",
              "icon": "fa fa-envelope",
              "name": "",
              "type": "email",
              "model": "email_1639503023000_79617",
              "rules": [
                {
                  "type": "email",
                  "message": "Format invalide"
                }
              ],
              "options": {
                "width": "100%",
                "pattern": "",
                "dataType": "email",
                "disabled": false,
                "required": false,
                "remoteFunc": "func_1639503023000_79617",
                "placeholder": "email",
                "defaultValue": ""
              }
            }
          ],
          "span": 12
        }
      ],
      "options": {
        "align": "top",
        "gutter": 0,
        "justify": "start",
        "remoteFunc": "func_1629297483000_37647"
      }
    },
    {
      "key": "1639503038000_81506",
      "icon": "fa fa-map-marker",
      "name": "Adresse ligne 1 ",
      "type": "adress",
      "model": "adress_1639503038000_81506",
      "rules": [
        {
          "type": "string",
          "message": "Adresse ligne 1 Format invalide"
        },
        {
          "message": "Adresse ligne 1 Obligatoire",
          "required": true
        }
      ],
      "options": {
        "width": "100%",
        "pattern": "",
        "dataType": "string",
        "disabled": false,
        "required": true,
        "remoteFunc": "func_1639503038000_81506",
        "placeholder": "",
        "defaultValue": ""
      }
    },
    {
      "key": "1639494789000_14442",
      "icon": "fa fa-map-marker",
      "name": "Adresse ligne 2 ",
      "type": "adress",
      "model": "adress_1639494789000_14442",
      "rules": [
        {
          "type": "string",
          "message": "Adresse ligne 2 Format invalide"
        }
      ],
      "options": {
        "width": "100%",
        "pattern": "",
        "dataType": "string",
        "disabled": false,
        "required": false,
        "remoteFunc": "func_1639494789000_14442",
        "placeholder": "",
        "defaultValue": ""
      }
    },
    {
      "key": "1639494802000_51197",
      "icon": "fa fa-map-marker",
      "name": "Adresse ligne 3 ",
      "type": "adress",
      "model": "adress_1639494802000_51197",
      "rules": [
        {
          "type": "string",
          "message": "Adresse ligne 3 Format invalide"
        }
      ],
      "options": {
        "width": "100%",
        "pattern": "",
        "dataType": "string",
        "disabled": false,
        "required": false,
        "remoteFunc": "func_1639494802000_51197",
        "placeholder": "",
        "defaultValue": ""
      }
    },
    {
      "key": "1629297650000_7879",
      "icon": "icon-grid-",
      "name": "Grid",
      "type": "grid",
      "model": "grid_1629297650000_7879",
      "rules": [],
      "columns": [
        {
          "list": [
            {
              "key": "1639494688000_60229",
              "icon": "fa fa-map-marker",
              "name": "Ville",
              "type": "adress",
              "model": "adress_1639494688000_60229",
              "rules": [
                {
                  "type": "string",
                  "message": "VilleFormat invalide"
                }
              ],
              "options": {
                "width": "100%",
                "pattern": "",
                "dataType": "string",
                "disabled": false,
                "required": false,
                "remoteFunc": "func_1639494688000_60229",
                "placeholder": "",
                "defaultValue": ""
              }
            },
            {
              "key": "1629297706000_98375",
              "icon": "icon-input",
              "name": "Code postal ",
              "type": "input",
              "model": "input_1629297706000_98375",
              "rules": [
                {
                  "type": "string",
                  "message": "Code postal Format invalide"
                },
                {
                  "message": "Code postal Obligatoire",
                  "required": true
                }
              ],
              "options": {
                "width": "100%",
                "pattern": "",
                "dataType": "string",
                "disabled": false,
                "required": true,
                "remoteFunc": "func_1629297706000_98375",
                "placeholder": "",
                "defaultValue": ""
              }
            }
          ],
          "span": 12
        },
        {
          "list": [
            {
              "key": "1629297683000_31265",
              "icon": "icon-input",
              "name": "Région ",
              "type": "input",
              "model": "input_1629297683000_31265",
              "rules": [
                {
                  "type": "string",
                  "message": "Région Format invalide"
                },
                {
                  "message": "Région Obligatoire",
                  "required": true
                }
              ],
              "options": {
                "width": "100%",
                "pattern": "",
                "dataType": "string",
                "disabled": false,
                "required": true,
                "remoteFunc": "func_1629297683000_31265",
                "placeholder": "",
                "defaultValue": ""
              }
            },
            {
              "key": "1639503112000_60762",
              "icon": "fa fa-flag",
              "name": "Pays",
              "type": "country",
              "model": "country_1639503112000_60762",
              "rules": [],
              "options": {
                "all": false,
                "props": {
                  "label": "label",
                  "value": "value"
                },
                "width": "",
                "remote": false,
                "options": [],
                "disabled": false,
                "multiple": false,
                "required": false,
                "clearable": false,
                "showLabel": false,
                "filterable": false,
                "remoteFunc": "func_1639503112000_60762",
                "placeholder": "Chose option",
                "defaultValue": null
              }
            }
          ],
          "span": 12
        }
      ],
      "options": {
        "align": "top",
        "gutter": 0,
        "justify": "start",
        "remoteFunc": "func_1629297650000_7879"
      }
    },
    {
      "key": "1629297955000_77021",
      "icon": "icon-wenzishezhi-",
      "name": "Adresse de correspondance",
      "type": "text",
      "model": "text_1629297955000_77021",
      "rules": [],
      "options": {
        "remoteFunc": "func_1629297955000_77021",
        "customClass": "",
        "defaultValue": "Adresse de correspondance"
      }
    },
    {
      "key": "1629298009000_65321",
      "icon": "icon-grid-",
      "name": "Grid",
      "type": "grid",
      "model": "grid_1629298009000_65321",
      "rules": [],
      "columns": [
        {
          "list": [
            {
              "key": "1639502996000_72230",
              "icon": "fa fa-phone",
              "name": "Contact",
              "type": "phone",
              "model": "phone_1639502996000_72230",
              "rules": [
                {
                  "type": "string",
                  "message": "ContactFormat invalide"
                }
              ],
              "options": {
                "width": "100%",
                "pattern": "",
                "dataType": "string",
                "disabled": false,
                "required": false,
                "remoteFunc": "func_1639502996000_72230",
                "placeholder": "Téléphone",
                "defaultValue": "+93"
              }
            }
          ],
          "span": 12
        },
        {
          "list": [
            {
              "key": "1639503029000_52071",
              "icon": "fa fa-envelope",
              "name": "",
              "type": "email",
              "model": "email_1639503029000_52071",
              "rules": [],
              "options": {
                "width": "100%",
                "pattern": "",
                "dataType": "email",
                "disabled": false,
                "required": false,
                "remoteFunc": "func_1639503029000_52071",
                "placeholder": "email",
                "defaultValue": ""
              }
            }
          ],
          "span": 12
        }
      ],
      "options": {
        "align": "top",
        "gutter": 0,
        "justify": "start",
        "remoteFunc": "func_1629298009000_65321"
      }
    },
    {
      "key": "1639503056000_61858",
      "icon": "fa fa-map-marker",
      "name": "Adresse ligne 1 ",
      "type": "adress",
      "model": "adress_1639503056000_61858",
      "rules": [
        {
          "type": "string",
          "message": "Adresse ligne 1 Format invalide"
        }
      ],
      "options": {
        "width": "100%",
        "pattern": "",
        "dataType": "string",
        "disabled": false,
        "required": false,
        "remoteFunc": "func_1639503056000_61858",
        "placeholder": "",
        "defaultValue": ""
      }
    },
    {
      "key": "1639503061000_80686",
      "icon": "fa fa-map-marker",
      "name": "Adresse ligne 2",
      "type": "adress",
      "model": "adress_1639503061000_80686",
      "rules": [
        {
          "type": "string",
          "message": "Adresse ligne 2Format invalide"
        }
      ],
      "options": {
        "width": "100%",
        "pattern": "",
        "dataType": "string",
        "disabled": false,
        "required": false,
        "remoteFunc": "func_1639503061000_80686",
        "placeholder": "",
        "defaultValue": ""
      }
    },
    {
      "key": "1639503101000_93886",
      "icon": "fa fa-map-marker",
      "name": "Adresse ligne 3",
      "type": "adress",
      "model": "adress_1639503101000_93886",
      "rules": [
        {
          "type": "string",
          "message": "Adresse ligne 3Format invalide"
        }
      ],
      "options": {
        "width": "100%",
        "pattern": "",
        "dataType": "string",
        "disabled": false,
        "required": false,
        "remoteFunc": "func_1639503101000_93886",
        "placeholder": "",
        "defaultValue": ""
      }
    },
    {
      "key": "1629298118000_36494",
      "icon": "icon-grid-",
      "name": "Grid",
      "type": "grid",
      "model": "grid_1629298118000_36494",
      "rules": [],
      "columns": [
        {
          "list": [
            {
              "key": "1639503104000_96840",
              "icon": "fa fa-map-marker",
              "name": "Ville",
              "type": "adress",
              "model": "adress_1639503104000_96840",
              "rules": [
                {
                  "type": "string",
                  "message": "VilleFormat invalide"
                }
              ],
              "options": {
                "width": "100%",
                "pattern": "",
                "dataType": "string",
                "disabled": false,
                "required": false,
                "remoteFunc": "func_1639503104000_96840",
                "placeholder": "",
                "defaultValue": ""
              }
            },
            {
              "key": "1629298154000_61068",
              "icon": "icon-input",
              "name": "Code postal ",
              "type": "input",
              "model": "input_1629298154000_61068",
              "rules": [
                {
                  "type": "string",
                  "message": "Code postal Format invalide"
                }
              ],
              "options": {
                "width": "100%",
                "pattern": "",
                "dataType": "string",
                "disabled": false,
                "required": false,
                "remoteFunc": "func_1629298154000_61068",
                "placeholder": "",
                "defaultValue": ""
              }
            }
          ],
          "span": 12
        },
        {
          "list": [
            {
              "key": "1629298136000_68054",
              "icon": "icon-input",
              "name": "Région ",
              "type": "input",
              "model": "input_1629298136000_68054",
              "rules": [
                {
                  "type": "string",
                  "message": "Région Invaild format"
                },
                {
                  "message": "Région Required",
                  "required": true
                }
              ],
              "options": {
                "width": "100%",
                "pattern": "",
                "dataType": "string",
                "disabled": false,
                "required": true,
                "remoteFunc": "func_1629298136000_68054",
                "placeholder": "",
                "defaultValue": ""
              }
            },
            {
              "key": "1639503118000_46027",
              "icon": "fa fa-flag",
              "name": "Pays",
              "type": "country",
              "model": "country_1639503118000_46027",
              "rules": [],
              "options": {
                "all": false,
                "props": {
                  "label": "label",
                  "value": "value"
                },
                "width": "",
                "remote": false,
                "options": [],
                "disabled": false,
                "multiple": false,
                "required": false,
                "clearable": false,
                "showLabel": false,
                "filterable": false,
                "remoteFunc": "func_1639503118000_46027",
                "placeholder": "Chose option",
                "defaultValue": null
              }
            }
          ],
          "span": 12
        }
      ],
      "options": {
        "align": "top",
        "gutter": 0,
        "justify": "start",
        "remoteFunc": "func_1629298118000_36494"
      }
    },
    {
      "key": "1629298277000_24028",
      "icon": "icon-grid-",
      "name": "Grid",
      "type": "grid",
      "model": "grid_1629298277000_24028",
      "rules": [],
      "columns": [
        {
          "list": [
            {
              "key": "1639498265000_94863",
              "icon": "icon-date",
              "name": "Adresse valide du",
              "type": "date",
              "model": "date_1639498265000_94863",
              "rules": [],
              "options": {
                "type": "date",
                "width": "",
                "format": "yyyy-MM-dd",
                "disabled": false,
                "editable": true,
                "readonly": false,
                "required": false,
                "clearable": true,
                "timestamp": false,
                "remoteFunc": "func_1639498265000_94863",
                "placeholder": "",
                "defaultValue": "",
                "endPlaceholder": "",
                "startPlaceholder": ""
              }
            }
          ],
          "span": 12
        },
        {
          "list": [
            {
              "key": "1639498301000_32932",
              "icon": "icon-date",
              "name": "AU",
              "type": "date",
              "model": "date_1639498301000_32932",
              "rules": [],
              "options": {
                "type": "date",
                "width": "",
                "format": "yyyy-MM-dd",
                "disabled": false,
                "editable": true,
                "readonly": false,
                "required": false,
                "clearable": true,
                "timestamp": false,
                "remoteFunc": "func_1639498301000_32932",
                "placeholder": "",
                "defaultValue": "",
                "endPlaceholder": "",
                "startPlaceholder": ""
              }
            }
          ],
          "span": 12
        }
      ],
      "options": {
        "align": "top",
        "gutter": 0,
        "justify": "start",
        "remoteFunc": "func_1629298277000_24028"
      }
    },
    {
      "key": "1629298729000_48717",
      "icon": "icon-switch",
      "name": "Autorisation d'une personne tierce",
      "type": "switch",
      "model": "switch_1629298729000_48717",
      "rules": [],
      "options": {
        "disabled": false,
        "required": false,
        "remoteFunc": "func_1629298729000_48717",
        "defaultValue": false
      }
    },
    {
      "key": "1639498333000_53414",
      "icon": "icon-grid-",
      "name": "Tableau",
      "type": "grid",
      "model": "grid_1639498333000_53414",
      "rules": [],
      "columns": [
        {
          "list": [
            {
              "key": "1639498346000_31158",
              "icon": "icon-input",
              "name": "Nom*",
              "type": "input",
              "model": "contact_name_1639498346000_31158",
              "rules": [
                {
                  "type": "string",
                  "message": "Nom*Format invalide"
                }
              ],
              "options": {
                "width": "100%",
                "pattern": "",
                "dataType": "string",
                "disabled": false,
                "required": false,
                "remoteFunc": "func_1639498346000_31158",
                "placeholder": "",
                "defaultValue": ""
              }
            }
          ],
          "span": 12
        },
        {
          "list": [
            {
              "key": "1639498361000_6811",
              "icon": "fa fa-envelope",
              "name": "Adresse email*",
              "type": "email",
              "model": "email_1639498361000_6811",
              "rules": [
                {
                  "type": "email",
                  "message": "Adresse email*Format invalide"
                }
              ],
              "options": {
                "width": "100%",
                "pattern": "",
                "dataType": "email",
                "disabled": false,
                "required": false,
                "remoteFunc": "func_1639498361000_6811",
                "placeholder": "",
                "defaultValue": ""
              }
            }
          ],
          "span": 12
        }
      ],
      "options": {
        "align": "top",
        "gutter": 0,
        "justify": "start",
        "remoteFunc": "func_1639498333000_53414"
      }
    }
  ],
  "config": {
    "size": "small",
    "labelWidth": 100,
    "labelPosition": "top"
  }
}