{
    "list": [
        {
            "key": "1639495445000_24030",
            "icon": "icon-wenzishezhi-",
            "name": "Titre",
            "type": "title",
            "model": "title_1639495445000_24030",
            "rules": [],
            "options": {
                "remoteFunc": "func_1639495445000_24030",
                "customClass": "",
                "defaultValue": "Pièces-jointes"
            }
        },
        {
            "key": "1639495593000_59760",
            "icon": "icon-wenzishezhi-",
            "name": "Text",
            "type": "text",
            "model": "text_1639495593000_59760",
            "rules": [],
            "options": {
                "remoteFunc": "func_1639495593000_59760",
                "customClass": "",
                "defaultValue": "Documents demandés par l'organisme*"
            }
        },
        {
            "key": "1639495638000_90953",
            "icon": "icon-wenzishezhi-",
            "name": "Text",
            "type": "text",
            "model": "text_1639495638000_90953",
            "rules": [],
            "options": {
                "remoteFunc": "func_1639495638000_90953",
                "customClass": "",
                "defaultValue": "Les documents suivants sont nécessaires pour le traîtement de votre candidature. Veillez les charger à partir de votre espace ou les télécharger :"
            }
        },
        {
            "key": "1639495667000_13524",
            "icon": "icon-grid-",
            "name": "Tableau",
            "type": "grid",
            "model": "grid_1639495667000_13524",
            "rules": [],
            "columns": [
                {
                    "list": [
                        {
                            "key": "1639495680000_15802",
                            "icon": "fa fa-file-o",
                            "name": "Curriculum vitae",
                            "type": "fileupload",
                            "model": "fileupload_1639495680000_15802",
                            "rules": [],
                            "options": {
                                "min": 0,
                                "size": {
                                    "width": 100,
                                    "height": 100
                                },
                                "token": "",
                                "width": "",
                                "action": "/api/media/upload",
                                "domain": "http://pfp81ptt6.bkt.clouddn.com/",
                                "isEdit": false,
                                "length": 8,
                                "isQiniu": false,
                                "disabled": false,
                                "isDelete": false,
                                "multiple": false,
                                "tokenFunc": "funcGetToken",
                                "remoteFunc": "func_1639495680000_15802",
                                "defaultValue": []
                            }
                        }
                    ],
                    "span": 12
                },
                {
                    "list": [
                        {
                            "key": "1639495699000_68064",
                            "icon": "fa fa-file-o",
                            "name": "Lettre de motivation",
                            "type": "fileupload",
                            "model": "fileupload_1639495699000_68064",
                            "rules": [],
                            "options": {
                                "min": 0,
                                "size": {
                                    "width": 100,
                                    "height": 100
                                },
                                "token": "",
                                "width": "",
                                "action": "/api/media/upload",
                                "domain": "http://pfp81ptt6.bkt.clouddn.com/",
                                "isEdit": false,
                                "length": 8,
                                "isQiniu": false,
                                "disabled": false,
                                "isDelete": false,
                                "multiple": false,
                                "tokenFunc": "funcGetToken",
                                "remoteFunc": "func_1639495699000_68064",
                                "defaultValue": []
                            }
                        }
                    ],
                    "span": 12
                }
            ],
            "options": {
                "align": "top",
                "gutter": 0,
                "justify": "start",
                "remoteFunc": "func_1639495667000_13524"
            }
        }
    ],
    "config": {
        "size": "small",
        "labelWidth": 100,
        "labelPosition": "top"
    }
}