id,continent_id,name,name_fr,code,location
"1","3","Afghanistan","Afghanistan","AF","[33.93911,67.709953]"
"2","1","South Africa","Afrique du Sud","ZA","[-30.559482,22.937506]"
"3","4","Albania","Albanie","AL","[41.153332,20.168331]"
"4","1","Algeria","Algerie","DZ","[28.033886,1.659626]"
"5","4","Germany","Allemagne","DE","[51.165691,10.451526]"
"6","4","Andorra","Andorre","AD","[42.506285,1.521801]"
"7","1","Angola","Angola","AO","[-11.202692,17.873887]"
"8","2","Anguilla Dog Island et Hat","Anguilla Dog Island et Sombrero","AI","[18.2783447,-63.25330159999999]"
"9","2","Antigua and Barbuda","Antigua et Barbuda","AG","[17.060816,-61.796428]"
"10","2","Netherlands Antilles","Antilles Neerlandaises","NL","[52.3763561,4.9245673]"
"11","3","Saudi Arabia","Arabie Saoudite","SA","[23.885942,45.079162]"
"12","2","Argentine","Argentine","AR","[-38.416097,-63.61667199999999]"
"13","3","Armenia","Armenie","AM","[40.069099,45.038189]"
"14","2","Aruba","Aruba","AW","[12.52111,-69.968338]"
"15","5","Australia","Australie","AU","[-25.274398,133.775136]"
"16","4","Austria","Autriche","AT","[47.516231,14.550072]"
"17","3","Azerbaidjan","Azerbaidjan","AZ","[40.143105,47.576927]"
"18","2","Bahamas","Bahamas","BS","[25.03428,-77.39627999999999]"
"19","3","Bahrain","Bahrein","BH","[26.0667,50.5577]"
"20","3","Bangladesh","Bangladesh","BD","[23.684994,90.356331]"
"21","2","Barbados","Barbade","BB","[13.193887,-59.543198]"
"22","4","Belgium","Belgique","BE","[50.503887,4.469936]"
"23","2","Belize","Bélize","BZ","[17.189877,-88.49765]"
"24","1","Benign","Bénin","US","[30.0707895,-94.12842839999999]"
"25","2","Bermuda","Bermudes","BM","[32.3078,-64.7505]"
"26","3","Bhutan","Bhoutan","BT","[27.514162,90.433601]"
"27","4","Belarus (Belarus)","Bélarus (Biélorussie)","BY","[53.709807,27.953389]"
"28","2","Bolivia","Bolivie","BO","[-16.290154,-63.58865299999999]"
"29","4","Bosnia herzegovina","Bosnie Herzegovine","BA","[43.915886,17.679076]"
"30","1","Botswana","Botswana","BW","[-22.328474,24.684866]"
"31","2","Brazil","Bresil","BR","[-14.235004,-51.92528]"
"32","3","Brunei","Brunei","BN","[4.535277,114.727669]"
"33","4","Bulgaria","Bulgarie","BG","[42.733883,25.48583]"
"34","1","Burkina Faso","Burkina Faso","BF","[12.238333,-1.561593]"
"35","1","Burundi","Burundi","BI","[-3.373056,29.918886]"
"36","3","Cambodia","Cambodge","KH","[12.565679,104.990963]"
"37","1","Cameroon","Cameroun","CM","[7.369721999999999,12.354722]"
"38","2","Canada","Canada","CA","[56.130366,-106.346771]"
"39","1","Cape Verde","Cap Vert","CV","[16.5388,-23.0418]"
"40","2","Chili","Chili","US","[36.7191948,-95.9357383]"
"41","3","China","Chine","CN","[35.86166,104.195397]"
"42","4","Cyprus","Chypre","CY","[35.126413,33.429859]"
"43","4","Vatican City","Cité du Vatican","VA","[41.902916,12.453389]"
"44","1","Comoros","Comores","KM","[-11.6455,43.3333]"
"45","1","Congo","Congo","CD","[-4.038333,21.758664]"
"46","3","North Korea","Corée du Nord","KP","[40.339852,127.510093]"
"47","3","South Korea","Corée du Sud","KR","[35.907757,127.766922]"
"48","2","Costa Rica","Costa Rica","CR","[9.748916999999999,-83.753428]"
"49","1","Ivory Coast","Cote d'Ivoire","CI","[7.539988999999999,-5.547079999999999]"
"50","4","Croatia","Croatie","HR","[45.1,15.2000001]"
"51","2","Cuba","Cuba","CU","[21.521757,-77.781167]"
"52","4","Denmark","Danemark","DK","[56.26392,9.501785]"
"53","1","Djibouti","Djibouti","DJ","[11.825138,42.590275]"
"54","2","Dominique","Dominique","US","[36.043704,-95.940524]"
"55","1","Egypt","Egypte","EG","[26.820553,30.802498]"
"56","3","United Arab Emirates","Emirats Arabes Unis","AE","[23.424076,53.847818]"
"57","2","Ecuador","Equateur","EC","[-1.831239,-78.18340599999999]"
"58","1","Eritrea","Erythree","ER","[15.179384,39.782334]"
"59","4","Spain","Espagne","ES","[40.46366700000001,-3.74922]"
"60","4","Estonia","Estonie","EE","[58.595272,25.0136071]"
"61","2","United States","Etats-Unis","US","[37.09024,-95.712891]"
"62","1","Ethiopia","Ethiopie","ET","[9.145000000000001,40.489673]"
"63","5","Fiji","Fidji","FJ","[-17.713371,178.065032]"
"64","4","Finland","Finlande","FI","[61.92410999999999,25.7481511]"
"65","4","France","France","FR","[46.227638,2.213749]"
"66","1","Gabon","Gabon","GA","[-0.803689,11.609444]"
"67","1","Gambia","Gambie","GM","[13.443182,-15.310139]"
"68","3","Georgia","Géorgie","US","[32.1656221,-82.9000751]"
"69","1","Ghana","Ghana","GH","[7.946527,-1.023194]"
"70","4","Gibraltar","Gibraltar","GI","[36.140751,-5.353585]"
"71","4","Greece","Grèce","GR","[39.074208,21.824312]"
"72","2","Grenade","Grenade","CA","[45.5250097,-73.5601494]"
"73","2","Greenland","Groenland","GL","[71.706936,-42.604303]"
"74","2","Guadeloupe","Guadeloupe","GP","[16.265,-61.55099999999999]"
"75","5","Guam","Guam","GU","[13.444304,144.793731]"
"76","2","Guatemala","Guatemala","GT","[15.783471,-90.23075899999999]"
"77","1","Guin","Guin","US","[33.9656594,-87.91474939999999]"
"78","1","Guin","Guin","US","[33.9656594,-87.91474939999999]"
"79","1","Guin","Guin","US","[33.9656594,-87.91474939999999]"
"80","2","Guyana","Guyane","GY","[4.860416,-58.93018]"
"81","2","French Guiana","Guyane Française","GF","[3.933889,-53.125782]"
"82","2","Haiti","Haiti","HT","[18.971187,-72.285215]"
"83","2","Honduras","Honduras","HN","[15.199999,-86.241905]"
"84","3","Hong Kong","Hong Kong","HK","[22.3193039,114.1693611]"
"85","4","Hungary","Hongrie","HU","[47.162494,19.5033041]"
"86","5","With Christmas","Ile Christmas","US","[43.3140278,-83.7370808]"
"87","5","Ile Norfolk","Ile Norfolk","NF","[-29.040835,167.954712]"
"88","1","Mauritius","Ile Maurice","MU","[-20.348404,57.55215200000001]"
"89",NULL,"Aland Islands","Iles Aland","AX","[60.1785247,19.9156105]"
"90","2","Caiman Islands","Iles Caiman","KY","[19.3133,-81.2546]"
"91","5","Cook Islands","Iles Cook","CK","[-21.236736,-159.777671]"
"92","4","Faroe Islands","Iles Feroe","FO","[61.89263500000001,-6.9118061]"
"93","2","Falkland Islands","Iles Malouines","FK","[-51.796253,-59.523613]"
"94","5","Northern Mariana Islands","Iles Mariannes du Nord","MP","[15.0979,145.6739]"
"95","5","Marshall Islands","Iles Marshall","MH","[7.131474,171.184478]"
"96","5","Solomon Islands","Iles Salomon","SB","[-9.64571,160.156194]"
"97","2","Turks and Ca Islands","Iles Turques et Ca","TC","[21.694025,-71.797928]"
"98","2","United States Virgin Islands","Iles Vierges des Etats Unis","VI","[18.335765,-64.896335]"
"99","2","United Kingdom Virgin Islands","Iles Vierges du Royaume Uni",,"[18.244355551945233,-64.71108734657629]"
"100","3","Inde","Inde","US","[34.101301,-118.259599]"
"101","3","Indonesia","Indonésie","ID","[-0.789275,113.921327]"
"102","3","Iraq","Iraq","IQ","[33.223191,43.679291]"
"103","3","Iran","Iran","IR","[32.427908,53.688046]"
"104","4","Ireland","Irlande",,"[53.1423672,-7.692053599999999]"
"105","4","Iceland","Islande","IS","[64.963051,-19.020835]"
"106","3","Israel","Israel","IL","[31.046051,34.851612]"
"107","4","Italy","Italie","IT","[41.87194,12.56738]"
"108","2","Jamaica","Jamaique","JM","[18.109581,-77.297508]"
"109","3","Japan","Japon","JP","[36.204824,138.252924]"
"110","3","Jordan","Jordanie","JO","[30.585164,36.238414]"
"111","3","Kazakhstan","Kazakhstan","KZ","[48.019573,66.923684]"
"112","1","Kenya","Kenya","KE","[-0.023559,37.906193]"
"113","3","Kyrgyzstan","Kirghizistan","KG","[41.20438,74.766098]"
"114","5","Kiribati","Kiribati","KI","[-3.370417,-168.734039]"
"115","3","Kuwait","Koweit","KW","[29.31166,47.481766]"
"116","3","Laos","Laos","LA","[19.85627,102.495496]"
"117","1","Lesotho","Lesotho","LS","[-29.609988,28.233608]"
"118","4","Latvia","Lettonie","LV","[56.879635,24.603189]"
"119","3","Lebanon","Liban","LB","[33.854721,35.862285]"
"120","1","Liberia","Libéria","LR","[6.428055,-9.429499000000002]"
"121","1","Libya","Libye","LY","[26.3351,17.228331]"
"122","4","Liechtenstein","Liechtenstein","LI","[47.166,9.555373]"
"123","4","Lithuania","Lituanie","LT","[55.169438,23.881275]"
"124","4","Luxembourg","Luxembourg","LU","[49.815273,6.129582999999999]"
"125","3","Macao","Macao","MO","[22.198745,113.543873]"
"126","4","Macedonia","Macedoine","MK","[41.608635,21.745275]"
"127","1","Madagascar","Madagascar","MG","[-18.766947,46.869107]"
"128","3","Malaysia","Malaisie","MY","[4.210484,101.975766]"
"129","1","Malawi","Malawi","MW","[-13.254308,34.301525]"
"130","3","Maldives","Maldives","MV","[3.202778,73.22068]"
"131","1","Mali","Mali","ML","[17.570692,-3.996166]"
"132","4","Malta","Malte","MT","[35.937496,14.375416]"
"133","1","Morocco","Maroc","MA","[31.791702,-7.092619999999999]"
"134","2","Martinique","Martinique","MQ","[14.641528,-61.024174]"
"135","1","Mauritania","Mauritanie","MR","[21.00789,-10.940835]"
"136","1","Mayotte","Mayotte","YT","[-12.8275,45.166244]"
"137","2","Mexico","Mexique","MX","[23.634501,-102.552784]"
"138","5","Micronesia","Micronesie","FM","[7.425554,150.550812]"
"139","4","Moldova","Moldavie","MD","[47.411631,28.369885]"
"140","4","Monaco","Monaco","MC","[43.73841760000001,7.424615799999999]"
"141","3","Mongolia","Mongolie","MN","[46.862496,103.846656]"
"142","4","Montenegro","Monténégro","ME","[42.708678,19.37439]"
"143","4","Montserrat","Montserrat","MS","[16.742498,-62.187366]"
"144","1","Mozambique","Mozambique","MZ","[-18.665695,35.529562]"
"145","3","Myanmar (Burma)","Myanmar (Birmanie)","MM","[21.916221,95.955974]"
"146","1","Namibia","Namibie","NA","[-22.95764,18.49041]"
"147","5","Nauru","Nauru","NR","[-0.522778,166.931503]"
"148","2","Nepal","Népal","NP","[28.394857,84.12400799999999]"
"149","2","Nicaragua","Nicaragua","NI","[12.865416,-85.207229]"
"150","1","Niger","Niger","NE","[17.607789,8.081666]"
"151","1","Nigeria","Nigeria","NG","[9.081999,8.675277]"
"152","5","NIUE","NIUE","NU","[-19.054445,-169.867233]"
"153","4","Norway","Norvège","NO","[60.47202399999999,8.468945999999999]"
"154","5","New Caledonia","Nouvelle Caledonie","NC","[-20.904305,165.618042]"
"155","5","New Zealand","Nouvelle Zelande","NZ","[-40.900557,174.885971]"
"156","3","Oman","Oman","OM","[21.4735329,55.975413]"
"157","1","Uganda","Ouganda","UG","[1.373333,32.290275]"
"158","3","Uzbekistan","Ouzbekistan","UZ","[41.377491,64.585262]"
"159","3","Pakistan","Pakistan","PK","[30.375321,69.34511599999999]"
"160","5","Palau","Palau","PW","[7.514979999999999,134.58252]"
"161","2","Panama","Panama","PA","[8.537981,-80.782127]"
"162","5","Papua New Guinea","Papou3 Nouvelle Guinee","PG","[-6.314992999999999,143.95555]"
"163","2","Paraguay","Paraguay","PY","[-23.442503,-58.443832]"
"164","4","Netherlands","Pays-Bas","NL","[52.132633,5.291265999999999]"
"165","2","Peru","Perou","PE","[-9.189967,-75.015152]"
"166","3","Philippines","Philippines","PH","[12.879721,121.774017]"
"167","5","Pitcairn","Pitcairn","PN","[-24.3767537,-128.3242376]"
"168","4","Poland","Pologne","PL","[51.919438,19.145136]"
"169","2","French Polynesia","Polynesie Française","PF","[-17.679742,-149.406843]"
"170","2","Puerto Rico","Porto Rico","PR","[18.220833,-66.590149]"
"171","4","Portugal","Portugal","PT","[39.39987199999999,-8.224454]"
"172","3","Qatar","Qatar","QA","[25.354826,51.183884]"
"173","1","Central African Republic","République Centrafricaine","CF","[6.611110999999999,20.939444]"
"174","1","Democratic Republic of Congo","République Démocratique du Congo","CD","[-4.038333,21.758664]"
"175","2","Dominican Republic","République Dominicaine","DO","[18.735693,-70.162651]"
"176","4","Czech republic","République Tchèque","CZ","[49.81749199999999,15.472962]"
"177","1","Meeting","Réunion","US","[37.09024,-95.712891]"
"178","4","Romania","Roumanie","RO","[45.943161,24.96676]"
"179","4","UK","Royaume Uni","GB","[55.378051,-3.435973]"
"180","3","Russia","Russie","RU","[61.52401,105.318756]"
"181","1","Rwanda","Rwanda","RW","[-1.940278,29.873888]"
"182","1","Sahara Occidental","Sahara Occidental","EH","[24.215527,-12.885834]"
"183","1","Saint Helena","Sainte Hélène","SH","[-15.9650104,-5.7089241]"
"184","2","St. LUCIA","Sainte Lucie","LC","[13.909444,-60.978893]"
"185","2","Saint Kitts and Nevis","Saint Kitts et Nevis","KN","[17.357822,-62.782998]"
"186","2","Saint Pierre and Miquelon","Saint Pierre et Miquelon","PM","[46.8852,-56.3159]"
"187","2","Saint Vincent and the Grenadines","Saint Vincent et les Grenadines","VC","[12.984305,-61.287228]"
"188","2","Salvador","Salvador","SV","[13.794185,-88.89653]"
"189","5","American Samoa","Samoa Americaines","AS","[-14.270972,-170.132217]"
"190","5","Samoa Occidentales","Samoa Occidentales","WS","[-13.759029,-172.104629]"
"191","1","Sao Tome and Principe","Sao Tome et Principe","ST","[0.18636,6.613080999999999]"
"192","1","Senegal","Sénégal","SN","[14.497401,-14.452362]"
"193","4","Serbia","Serbie","RS","[44.016521,21.005859]"
"194","1","Seychelles","Seychelles","SC","[-4.679574,55.491977]"
"195","1","Sierra Leone","Sierra Leone","SL","[8.460555,-11.779889]"
"196","3","Singapore","Singapour","SG","[1.352083,103.819836]"
"197","4","Slovakia","Slovaquie","SK","[48.669026,19.699024]"
"198","4","Slovenia","Slovénie","SI","[46.151241,14.995463]"
"199","1","Somalia","Somalie","SO","[5.152149,46.199616]"
"200","1","Sudan","Soudan","SD","[12.862807,30.217636]"
"201","3","Sri Lanka","Sri Lanka","LK","[7.873053999999999,80.77179699999999]"
"202","4","Sweden","Suède","SE","[60.12816100000001,18.643501]"
"203","4","Suisse","Suisse","CH","[46.818188,8.227511999999999]"
"204","1","Suriname","Surinam","SR","[3.919305,-56.027783]"
"205","4","Svalbard et jan mayen","Svalbard et Jan Mayen","SJ","[77.55360399999999,23.6702719]"
"206","1","Swaziland","Swaziland","SZ","[-26.522503,31.465866]"
"207","3","Syria","Syrie","SY","[34.80207499999999,38.996815]"
"208","3","Tadjikistan","Tadjikistan","TJ","[38.861034,71.276093]"
"209","3","Taiwan","Taiwan","TW","[23.69781,120.960515]"
"210","1","Tanzania","Tanzanie","TZ","[-6.369028,34.888822]"
"211","1","Chad","Tchad","TD","[15.454166,18.732207]"
"212","5","British Indian Ocean Territory","Territoire Britannique de l'Ocean Indien","IO","[-6.343194,71.876519]"
"213","3","Occupied Palestinian Territories (Gaza)","Territoires Palestiniens occupés (Gaza)",,"[32.045444600141394,35.2187908913158]"
"214","3","Thailand","Thailande","TH","[15.870032,100.992541]"
"215","3","Timor Leste","Timor Leste","TL","[-8.874217,125.727539]"
"216","1","Togo","Togo","TG","[8.619543,0.824782]"
"217","5","Tokelau","Tokelau","TK","[-9.200199999999999,-171.8484]"
"218","5","Tonga","Tonga","TO","[-21.178986,-175.198242]"
"219","2","Trinidad and Tobago","Trinité et Tobago","TT","[10.691803,-61.222503]"
"220","1","Tunisia","Tunisie","TN","[33.886917,9.537499]"
"221","3","Turkmenistan","Turkmenistan","TM","[38.969719,59.556278]"
"222","3","Turkey","Turquie","TR","[38.963745,35.243322]"
"223","5","Tuvalu","Tuvalu","TV","[-7.109534999999999,177.64933]"
"224","4","Ukraine","Ukraine","UA","[48.379433,31.1655799]"
"225","2","Uruguay","Uruguay","UY","[-32.522779,-55.765835]"
"226","5","Vanuatu","Vanuatu","VU","[-15.376706,166.959158]"
"227","2","Venezuela","Venezuela","VE","[6.42375,-66.58973]"
"228","3","Vietnam","Vietnam","VN","[14.058324,108.277199]"
"229","5","Wallis and Futuna","Wallis et Futuna","WF","[-14.2938,-178.1165]"
"230","3","Yemen","Yemen","YE","[15.552727,48.516388]"
"231","1","Zambia","Zambie","ZM","[-13.133897,27.849332]"
"232","1","Zimbabwe","Zimbabwe","ZW","[-19.015438,29.154857]"
