<?xml version="1.0" encoding="UTF-8"?>
<svg width="27px" height="27px" viewBox="0 0 27 27" version="1.1" xmlns="http://www.w3.org/2000/svg" xmlns:xlink="http://www.w3.org/1999/xlink">
    <!-- Generator: Sketch 52.5 (67469) - http://www.bohemiancoding.com/sketch -->
    <title>Picto Ajout To Do</title>
    <desc>Created with Sketch.</desc>
    <g id="ACCUEIL" stroke="none" stroke-width="1" fill="none" fill-rule="evenodd">
        <g id="Accueil-Bourses" transform="translate(-1115.999023, -1221.000000)" fill="#ffffff">
            <g id="Picto-Ajout-To-Do" transform="translate(1115.999512, 1221.000000)">
                <g id="Group">
                    <path d="M12.1500005,0 L12.1500005,12.1500005 L0,12.1500005 L0,14.8500003 L12.1500005,14.8500003 L12.1500005,27 L14.8500003,27 L14.8500003,14.8500003 L27,14.8500003 L27,12.1500005 L14.8500003,12.1500005 L14.8500003,0 L12.1500005,0 Z" id="Shape"></path>
                </g>
            </g>
        </g>
    </g>
</svg>