<?xml version="1.0" encoding="UTF-8"?>
<svg width="22px" height="20px" viewBox="0 0 22 20" version="1.1" xmlns="http://www.w3.org/2000/svg" xmlns:xlink="http://www.w3.org/1999/xlink">
    <!-- Generator: Sketch 52.5 (67469) - http://www.bohemiancoding.com/sketch -->
    <title>Ajout favoris</title>
    <desc>Created with Sketch.</desc>
    <g id="Symbols" stroke="none" stroke-width="1" fill="none" fill-rule="evenodd">
        <g id="BLOC-BOURSE" transform="translate(-347.015625, -54.000000)" fill="#D3D3D3">
            <g id="Ajout-favoris" transform="translate(347.304688, 54.525879)">
                <g id="Group">
                    <path d="M6.04545491,0 C4.34131562,0 2.79139633,0.589894019 1.69642866,1.66558444 C0.601461102,2.74127473 0,4.27962752 0,6.04545444 C0,9.03348222 1.83137208,11.2619728 3.91720814,13.13961 C6.00304419,15.0172483 8.43587758,16.6789778 10.0860399,18.62987 C10.267249,18.8573461 10.5371359,18.9922889 10.8262996,19 L10.8879885,19 C11.1771522,18.9922889 11.4470378,18.8573461 11.6282476,18.62987 C13.2784099,16.6789778 15.7112433,15.0172483 17.7970796,13.13961 C19.882916,11.2619728 21.7142868,9.03348222 21.7142868,6.04545444 C21.7142868,4.27962752 21.0819817,2.74127473 19.9870143,1.66558444 C18.892047,0.589894019 17.3729725,0 15.6688325,0 C13.9801152,0 12.5959828,0.921469592 11.6282476,1.75811695 C11.1540184,2.16680237 11.1308859,2.27861251 10.8571434,2.59090917 C10.5872585,2.27861251 10.5602684,2.16680237 10.0860399,1.75811695 C9.12216096,0.921469592 7.73417358,0 6.04545491,0 Z M6.04545467,1.9740262 C6.97463488,1.9740262 8.01177054,2.59476432 8.79058434,3.26948068 C9.56940026,3.94419699 10.0551947,4.59577921 10.0551947,4.59577921 C10.2402599,4.85409899 10.5409912,5.00831972 10.8571428,5.00831972 C11.1732966,5.00831972 11.4740257,4.85409899 11.659091,4.59577921 C11.659091,4.59577921 12.1410308,3.94419699 12.9237018,3.26948068 C13.7063718,2.59476432 14.7357951,1.9740262 15.6688307,1.9740262 C16.9372972,1.9740262 17.9358764,2.40584435 18.6298699,3.08441579 C19.3238634,3.76298714 19.7402595,4.72301136 19.7402595,6.04545452 C19.7402595,8.23153393 18.4178163,9.90482926 16.4707788,11.6590906 C14.747362,13.2128643 12.6422488,14.8051945 10.8571428,16.6866871 C9.06818174,14.7974827 6.97077924,13.2128643 5.24350651,11.6590906 C3.29646976,9.90482926 1.97402608,8.23153393 1.97402608,6.04545452 C1.97402608,4.72301136 2.39042218,3.76298714 3.08441567,3.08441579 C3.77840917,2.40584435 4.77313362,1.9740262 6.04545467,1.9740262 Z" id="Shape"></path>
                </g>
            </g>
        </g>
    </g>
</svg>