<?xml version="1.0" encoding="UTF-8"?>
<svg width="22px" height="19px" viewBox="0 0 22 19" version="1.1" xmlns="http://www.w3.org/2000/svg" xmlns:xlink="http://www.w3.org/1999/xlink">
    <!-- Generator: Sketch 52.5 (67469) - http://www.bohemiancoding.com/sketch -->
    <title>Cacher</title>
    <desc>Created with Sketch.</desc>
    <g id="FORUM" stroke="none" stroke-width="1" fill="none" fill-rule="evenodd">
        <g id="Forum-3" transform="translate(-1110.000244, -776.000000)" fill="#D3D3D3">
            <g id="Cacher" transform="translate(1110.000244, 776.835327)">
                <path d="M3.13491744,0 L1.75265188,1.38226555 L3.98451459,3.61412805 C1.17237601,5.90929753 0,9 0,9 C0,9 2.93254159,16.8201102 10.7526528,16.8201102 C12.7815492,16.8201102 14.4730725,16.2871006 15.8769633,15.5065756 L18.3703879,18 L19.7526531,16.6177343 L3.13491744,0 Z M10.7526528,1.1798898 C9.56790624,1.1798898 8.5100378,1.37511735 7.54327631,1.68010194 L10.0462464,4.18307175 C10.2779177,4.14885902 10.5112071,4.11243116 10.7526528,4.11243116 C13.4515684,4.11243116 15.6402223,6.30108467 15.6402223,9.00000009 C15.6402223,9.24144607 15.6037944,9.47473533 15.5695817,9.70640669 L18.9221481,13.0589734 C20.7276164,11.05507 21.5053048,9.00000009 21.5053048,9.00000009 C21.5053048,9.00000009 18.572764,1.1798898 10.7526528,1.1798898 Z M6.68031493,6.30992794 L8.11031054,7.73992444 C7.92583822,8.12104788 7.82011124,8.54698641 7.82011124,8.99999962 C7.82011124,10.6197395 9.13291254,11.9325405 10.7526527,11.9325405 C11.2056657,11.9325405 11.6316043,11.8268126 12.012728,11.6423414 L13.4427242,13.072337 C12.6705727,13.5843023 11.749004,13.8875675 10.7526527,13.8875675 C8.05373731,13.8875675 5.86508369,11.6989144 5.86508369,8.99999962 C5.86508369,8.00364848 6.16834923,7.08207979 6.68031493,6.30992794 Z" id="Shape"></path>
            </g>
        </g>
    </g>
</svg>