<svg id="icons8_age_1" xmlns="http://www.w3.org/2000/svg" width="19.8" height="22" viewBox="0 0 19.8 22">
  <path id="Shape" d="M17.6,22H2.2A2.2,2.2,0,0,1,0,19.8V4.4A2.2,2.2,0,0,1,2.2,2.2H3.3V1.1a1.1,1.1,0,1,1,2.2,0V2.2h8.8V1.1a1.1,1.1,0,0,1,2.2,0V2.2h1.1a2.2,2.2,0,0,1,2.2,2.2V19.8A2.2,2.2,0,0,1,17.6,22ZM2.2,7.7V19.8H17.6V7.7Zm7.7,11a1.022,1.022,0,0,1-.727-.3L7.29,16.515A.653.653,0,0,1,7.749,15.4h4.3a.654.654,0,0,1,.464,1.115L10.628,18.4A1.022,1.022,0,0,1,9.9,18.7Zm2.147-5.5h-4.3a.653.653,0,0,1-.459-1.115L9.174,10.2a1.03,1.03,0,0,1,1.454,0l1.885,1.885a.654.654,0,0,1-.464,1.115Z" fill="#3c3850"/>
</svg>
