<?xml version="1.0" encoding="UTF-8"?>
<svg width="8px" height="14px" viewBox="0 0 8 14" version="1.1" xmlns="http://www.w3.org/2000/svg" xmlns:xlink="http://www.w3.org/1999/xlink">
    <!-- Generator: Sketch 52.5 (67469) - http://www.bohemiancoding.com/sketch -->
    <title>Picto fleche voir</title>
    <desc>Created with Sketch.</desc>
    <g id="ACCUEIL" stroke="none" stroke-width="1" fill="none" fill-rule="evenodd">
        <g id="Accueil-Bourses" transform="translate(-1422.999023, -1393.000000)" fill="#ffffff">
            <g id="Group" transform="translate(1119.000000, 1290.222656)">
                <g id="Picto-fleche-voir" transform="translate(308.125000, 109.914429) rotate(90.000000) translate(-308.125000, -109.914429) translate(301.726440, 106.039429)">
                    <g id="Group">
                        <path d="M6.39855433,4.6926997 L11.1894641,0 C11.4029626,-0.209228915 11.7445602,-0.207094193 11.9580595,0.00426971186 L12.7971087,0.843319306 C13.0106072,1.05895351 13.0106072,1.4048207 12.7949737,1.61831932 L6.78498664,7.58987635 C6.67823738,7.69662561 6.53946411,7.75 6.39855433,7.75 C6.25764569,7.75 6.11887127,7.69662561 6.01212201,7.58987635 L0.0021348561,1.61831932 C-0.213498635,1.4048207 -0.213498635,1.05895351 0,0.843319306 L0.839049548,0.00426971186 C1.05254816,-0.207094193 1.39414607,-0.209228915 1.60764458,0 L6.39855433,4.6926997 Z" id="Shape"></path>
                    </g>
                </g>
            </g>
        </g>
    </g>
</svg>