<?xml version="1.0" encoding="UTF-8"?>
<svg width="14px" height="17px" viewBox="0 0 14 17" version="1.1" xmlns="http://www.w3.org/2000/svg" xmlns:xlink="http://www.w3.org/1999/xlink">
    <!-- Generator: Sketch 52.5 (67469) - http://www.bohemiancoding.com/sketch -->
    <title>Contacts</title>
    <desc>Created with Sketch.</desc>
    <g id="MESSAGERIE" stroke="none" stroke-width="1" fill="none" fill-rule="evenodd">
        <g id="MESSAGERIE-A" transform="translate(-389.999512, -388.000000)" fill="#D3D3D3">
            <g id="Contacts" transform="translate(390.252686, 388.000000)">
                <path d="M11.9000003,0 L1.70000005,0 C0.760750005,0 0,0.760750022 0,1.70000003 L0,15.3000006 C0,16.2392494 0.760750005,17 1.70000005,17 L11.9000003,17 C12.83925,17 13.6000004,16.2392494 13.6000004,15.3000006 L13.6000004,1.70000003 C13.6000004,0.760750022 12.83925,0 11.9000003,0 Z M6.80000019,3.40002441 C8.24500014,3.40002441 9.35000038,4.50502466 9.35000038,5.9500246 C9.35000038,7.39502455 8.24500014,8.5000248 6.80000019,8.5000248 C5.35500024,8.5000248 4.25,7.39502455 4.25,5.9500246 C4.25,4.50502466 5.35500024,3.40002441 6.80000019,3.40002441 Z M11.0500479,13.5999517 L2.55004883,13.5999517 C2.55004883,13.5999517 2.55004883,13.1027024 2.55004883,12.7499516 C2.55004883,11.4146013 4.68524876,10.1999512 6.80004835,10.1999512 C8.91484794,10.1999512 11.0500479,11.4146013 11.0500479,12.7499516 C11.0500479,13.1027024 11.0500479,13.5999517 11.0500479,13.5999517 Z" id="Shape"></path>
            </g>
        </g>
    </g>
</svg>