<?xml version="1.0" encoding="UTF-8"?>
<svg width="28px" height="28px" viewBox="0 0 28 28" version="1.1" xmlns="http://www.w3.org/2000/svg" xmlns:xlink="http://www.w3.org/1999/xlink">
    <!-- Generator: Sketch 52.5 (67469) - http://www.bohemiancoding.com/sketch -->
    <title>Date</title>
    <desc>Created with Sketch.</desc>
    <g id="PAGES-FOOTER" stroke="none" stroke-width="1" fill="none" fill-rule="evenodd">
        <g id="BLOG-ARTICLE" transform="translate(-1069.000000, -2185.000000)" fill="#3C3850">
            <g id="Date" transform="translate(1069.001953, 2185.000000)">
                <g id="Group">
                    <path d="M4.30769247,0 L4.30769247,2.15384623 L3.23076946,2.15384623 C1.45552835,2.15384623 0,3.60937458 0,5.38461548 L0,24.7692318 C0,26.5444727 1.45552835,28 3.23076946,28 L24.7692318,28 C26.5444727,28 28,26.5444727 28,24.7692318 L28,5.38461548 C28,3.60937458 26.5444727,2.15384623 24.7692318,2.15384623 L23.6923079,2.15384623 L23.6923079,0 L21.5384619,0 L21.5384619,2.15384623 L6.46153891,2.15384623 L6.46153891,0 L4.30769247,0 Z M3.23076923,4.30769253 L4.3076922,4.30769253 L4.3076922,6.46153593 L6.46153814,6.46153593 L6.46153814,4.30769253 L21.5384604,4.30769253 L21.5384604,6.46153593 L23.6923056,6.46153593 L23.6923056,4.30769253 L24.769229,4.30769253 C25.3749982,4.30769253 25.8461509,4.77884577 25.8461509,5.38461423 L25.8461509,8.61537933 L2.15384626,8.61537933 L2.15384626,5.38461423 C2.15384626,4.77884577 2.62500004,4.30769253 3.23076923,4.30769253 Z M2.15384626,10.7692308 L25.8461509,10.7692308 L25.8461509,24.7692343 C25.8461509,25.375004 25.3749982,25.8461571 24.769229,25.8461571 L3.23076923,25.8461571 C2.62500004,25.8461571 2.15384626,25.375004 2.15384626,24.7692343 L2.15384626,10.7692308 Z M8.61538506,12.9230804 L8.61538506,15.0769196 L10.7692299,15.0769196 L10.7692299,12.9230804 L8.61538506,12.9230804 Z M12.9230804,12.9230804 L12.9230804,15.0769196 L15.0769196,15.0769196 L15.0769196,12.9230804 L12.9230804,12.9230804 Z M17.2307701,12.9230804 L17.2307701,15.0769196 L19.3846169,15.0769196 L19.3846169,12.9230804 L17.2307701,12.9230804 Z M21.5384617,12.9230804 L21.5384617,15.0769196 L23.6923065,15.0769196 L23.6923065,12.9230804 L21.5384617,12.9230804 Z M4.30769253,17.2307701 L4.30769253,19.3846169 L6.46153831,19.3846169 L6.46153831,17.2307701 L4.30769253,17.2307701 Z M8.61538506,17.2307701 L8.61538506,19.3846169 L10.7692299,19.3846169 L10.7692299,17.2307701 L8.61538506,17.2307701 Z M12.9230804,17.2307701 L12.9230804,19.3846169 L15.0769196,19.3846169 L15.0769196,17.2307701 L12.9230804,17.2307701 Z M17.2307701,17.2307701 L17.2307701,19.3846169 L19.3846169,19.3846169 L19.3846169,17.2307701 L17.2307701,17.2307701 Z M21.5384617,17.2307701 L21.5384617,19.3846169 L23.6923065,19.3846169 L23.6923065,17.2307701 L21.5384617,17.2307701 Z M4.30769253,21.5384617 L4.30769253,23.6923065 L6.46153831,23.6923065 L6.46153831,21.5384617 L4.30769253,21.5384617 Z M8.61538506,21.5384617 L8.61538506,23.6923065 L10.7692299,23.6923065 L10.7692299,21.5384617 L8.61538506,21.5384617 Z M12.9230804,21.5384617 L12.9230804,23.6923065 L15.0769196,23.6923065 L15.0769196,21.5384617 L12.9230804,21.5384617 Z" id="Shape"></path>
                </g>
            </g>
        </g>
    </g>
</svg>