<?xml version="1.0" encoding="UTF-8"?>
<svg width="20px" height="21px" viewBox="0 0 20 21" version="1.1" xmlns="http://www.w3.org/2000/svg" xmlns:xlink="http://www.w3.org/1999/xlink">
    <!-- Generator: Sketch 52.5 (67469) - http://www.bohemiancoding.com/sketch -->
    <title>Envoyer message</title>
    <desc>Created with Sketch.</desc>
    <g id="MESSAGERIE" stroke="none" stroke-width="1" fill="none" fill-rule="evenodd">
        <g id="MESSAGERIE-D-" transform="translate(-1023.000000, -500.000000)" fill="#3C3850">
            <g id="Envoyer-message" transform="translate(1023.000488, 500.000122)">
                <g id="Group">
                    <path d="M0,0 L0,9.06818193 L15.8693182,10.5 L0,11.9318181 L0,21 L20.045454,10.5 L0,0 Z" id="Shape"></path>
                </g>
            </g>
        </g>
    </g>
</svg>