<?xml version="1.0" encoding="UTF-8"?>
<svg width="27px" height="26px" viewBox="0 0 27 26" version="1.1" xmlns="http://www.w3.org/2000/svg" xmlns:xlink="http://www.w3.org/1999/xlink">
    <!-- Generator: Sketch 52.5 (67469) - http://www.bohemiancoding.com/sketch -->
    <title>Etoile</title>
    <desc>Created with Sketch.</desc>
    <g id="EMPLOI" stroke="none" stroke-width="1" fill="none" fill-rule="evenodd">
        <g id="Emploi-Page-Job" transform="translate(-645.000000, -1366.000000)" fill="#3DC5B7">
            <g id="Etoile" transform="translate(646.000000, 1367.000000)">
                <path d="M13.3550621,0.000965656887 L16.1249217,8.20167947 L24.779408,8.30187607 C25.5241418,8.31054711 25.8324403,9.25952554 25.2351097,9.70366645 L18.2916764,14.8715029 L20.8707747,23.1338754 C21.0923631,23.8448896 20.2859751,24.4306526 19.6780509,24 L12.6180369,18.9930539 L5.55706147,23.9990344 C4.95010071,24.4296885 4.14274698,23.8429599 4.36433577,23.1329126 L6.94343712,14.8705387 L0,9.70270085 C-0.597326388,9.25855923 -0.289028843,8.30958152 0.45570227,8.30091047 L9.11019106,8.20071387 L11.8800514,0 C12.1189809,-0.705228344 13.1170937,-0.705228344 13.3550621,0.000965656887 Z" id="Shape"></path>
            </g>
        </g>
    </g>
</svg>