<svg id="icons8_hearts_1" xmlns="http://www.w3.org/2000/svg" width="23" height="20.02" viewBox="0 0 23 20.02">
  <path id="Shape" d="M16.675,0A6.99,6.99,0,0,0,11.5,2.28,6.99,6.99,0,0,0,6.325,0,6.169,6.169,0,0,0,0,6c0,4.551,5.649,8.96,7.223,10.354,1.814,1.6,4.277,3.666,4.277,3.666s2.463-2.062,4.277-3.666C17.351,14.961,23,10.551,23,6a6.169,6.169,0,0,0-6.325-6Z" fill="#3dc5b7"/>
</svg>
