<?xml version="1.0" encoding="UTF-8"?>
<svg width="24px" height="25px" viewBox="0 0 24 25" version="1.1" xmlns="http://www.w3.org/2000/svg" xmlns:xlink="http://www.w3.org/1999/xlink">
    <!-- Generator: Sketch 52.5 (67469) - http://www.bohemiancoding.com/sketch -->
    <title>Filtrer</title>
    <desc>Created with Sketch.</desc>
    <g id="FORUM" stroke="none" stroke-width="1" fill="none" fill-rule="evenodd">
        <g id="Forum" transform="translate(-392.000244, -317.000000)" fill="#FFFFFF">
            <g id="Filtrer" transform="translate(392.000000, 317.012421)">
                <path d="M0,0 L0,2.66666603 L24,2.66666603 L24,0 L0,0 Z M2.66666675,5.33333349 L9.33333403,13.3333339 L9.33333403,23.9999995 L14.6666685,23.9999995 L14.6666685,13.3333339 L21.3333347,5.33333349 L2.66666675,5.33333349 Z" id="Shape"></path>
            </g>
        </g>
    </g>
</svg>