<svg id="icons8_add_folder_1" xmlns="http://www.w3.org/2000/svg" width="39" height="35.454" viewBox="0 0 39 35.454">
  <path id="Shape" d="M30.15,35.454a8.861,8.861,0,1,1,6.255-2.6A8.79,8.79,0,0,1,30.15,35.454ZM26.613,24.823a1.773,1.773,0,1,0,0,3.545h1.772v1.773a1.773,1.773,0,0,0,3.546,0V28.368H33.7a1.773,1.773,0,1,0,0-3.545H31.931V23.05a1.773,1.773,0,1,0-3.546,0v1.773Zm-8.744,3.542H3.546A3.55,3.55,0,0,1,0,24.819V3.546A3.55,3.55,0,0,1,3.546,0h9.168a3.566,3.566,0,0,1,2.507,1.039L16.69,2.506A3.567,3.567,0,0,0,19.2,3.546H31.91a3.549,3.549,0,0,1,3.545,3.545v8.3a12.284,12.284,0,0,0-5.318-1.212A12.32,12.32,0,0,0,17.869,28.363Z" fill="#d0ceda"/>
</svg>
