<?xml version="1.0" encoding="UTF-8"?>
<svg width="21px" height="20px" viewBox="0 0 21 20" version="1.1" xmlns="http://www.w3.org/2000/svg" xmlns:xlink="http://www.w3.org/1999/xlink">
    <!-- Generator: Sketch 52.5 (67469) - http://www.bohemiancoding.com/sketch -->
    <title>Homme</title>
    <desc>Created with Sketch.</desc>
    <g id="EMPLOI" stroke="none" stroke-width="1" fill="none" fill-rule="evenodd">
        <g id="Emploi-Page-Entreprise" transform="translate(-1215.000000, -494.000000)" fill="#3C3850">
            <g id="Homme" transform="translate(1215.868652, 493.999969)">
                <g id="Group">
                    <path d="M11.428573,0 L11.428573,1.90476212 L16.7559544,1.90476212 L11.4732157,7.18750069 C10.269718,6.26488149 8.76860225,5.71428651 7.14285799,5.71428651 C3.20870579,5.71428651 0,8.92299201 0,12.8571439 C0,16.7912964 3.20870579,20.0000019 7.14285799,20.0000019 C11.0770105,20.0000019 14.285716,16.7912964 14.285716,12.8571439 C14.285716,11.2313997 13.7351204,9.73028395 12.8125012,8.52678678 L18.0952399,3.24404807 L18.0952399,8.57142947 L20.0000019,8.57142947 L20.0000019,0 L11.428573,0 Z M7.14285898,7.61904716 C10.0465058,7.61904716 12.3809562,9.9534958 12.3809562,12.8571405 C12.3809562,15.7607853 10.0465058,18.0952339 7.14285898,18.0952339 C4.23921212,18.0952339 1.90476179,15.7607853 1.90476179,12.8571405 C1.90476179,9.9534958 4.23921212,7.61904716 7.14285898,7.61904716 Z" id="Shape"></path>
                </g>
            </g>
        </g>
    </g>
</svg>