<?xml version="1.0" encoding="UTF-8"?>
<svg width="23px" height="25px" viewBox="0 0 23 25" version="1.1" xmlns="http://www.w3.org/2000/svg" xmlns:xlink="http://www.w3.org/1999/xlink">
    <!-- Generator: Sketch 52.5 (67469) - http://www.bohemiancoding.com/sketch -->
    <title>Calendrier</title>
    <desc>Created with Sketch.</desc>
    <g id="ACCUEIL" stroke="none" stroke-width="1" fill="none" fill-rule="evenodd">
        <g id="Accueil-Bourses" transform="translate(-1783.999023, -1220.000000)" fill="#000000">
            <g id="Calendrier" transform="translate(1784.952148, 1220.904785)">
                <path d="M3.60000017,0 L3.60000017,2.40000004 L2.40000006,2.40000004 C1.08000012,2.40000004 0,3.48000026 0,4.80000007 L0,21.6000009 C0,22.920001 1.08000012,24 2.40000006,24 L19.2000005,24 C20.5200014,24 21.6000004,22.920001 21.6000004,21.6000009 L21.6000004,4.80000007 C21.6000004,3.48000026 20.5200014,2.40000004 19.2000005,2.40000004 L17.9999999,2.40000004 L17.9999999,0 L15.6,0 L15.6,2.40000004 L6.00000039,2.40000004 L6.00000039,0 L3.60000017,0 Z M2.4000001,4.80000019 L3.60000023,4.80000019 L6.00000063,4.80000019 L15.6000017,4.80000019 L18.0000017,4.80000019 L19.2000012,4.80000019 L19.2000012,7.19999886 L2.4000001,7.19999886 L2.4000001,4.80000019 Z M2.4000001,9.60000038 L19.2000012,9.60000038 L19.2000012,21.6000004 L2.4000001,21.6000004 L2.4000001,9.60000038 Z" id="Shape"></path>
            </g>
        </g>
    </g>
</svg>