<?xml version="1.0" encoding="UTF-8"?>
<svg width="15px" height="18px" viewBox="0 0 15 18" version="1.1" xmlns="http://www.w3.org/2000/svg" xmlns:xlink="http://www.w3.org/1999/xlink">
    <!-- Generator: Sketch 52.5 (67469) - http://www.bohemiancoding.com/sketch -->
    <title>Anniversaire</title>
    <desc>Created with Sketch.</desc>
    <g id="PROFIL" stroke="none" stroke-width="1" fill="none" fill-rule="evenodd">
        <g id="Profil" transform="translate(-758.000488, -750.000244)" fill="#D3D3D3">
            <g id="Anniversaire" transform="translate(758.136353, 750.000000)">
                <path d="M2.45454538,0 C2.45454538,0 0.818181872,2.36863557 0.818181872,3.27272616 C0.818181872,4.17681675 1.55045453,4.90908909 2.45454538,4.90908909 C3.35863623,4.90908909 4.09090889,4.17681675 4.09090889,3.27272616 C4.09090889,2.36863557 2.45454538,0 2.45454538,0 Z M7.36363649,0 C7.36363649,0 5.72727299,2.36863557 5.72727299,3.27272616 C5.72727299,4.17681675 6.45954603,4.90908909 7.36363649,4.90908909 C8.26772696,4.90908909 9,4.17681675 9,3.27272616 C9,2.36863557 7.36363649,0 7.36363649,0 Z M12.272728,0 C12.272728,0 10.636364,2.36863557 10.636364,3.27272616 C10.636364,4.17681675 11.3686372,4.90908909 12.272728,4.90908909 C13.1768187,4.90908909 13.9090919,4.17681675 13.9090919,3.27272616 C13.9090919,2.36863557 12.272728,0 12.272728,0 Z M2.45454557,5.72727346 C2.00290902,5.72727346 1.63636368,6.09381881 1.63636368,6.54545513 L1.63636368,7.51384985 C0.684951144,7.85183315 0,8.75076195 0,9.81818171 L0,11.2515979 L0.404296876,11.7134228 C1.02611493,12.4227864 2.24661253,12.4236049 2.86843042,11.7134228 L4.50159809,9.84854416 L6.13316792,11.7134228 C6.75498625,12.4227864 7.97548418,12.4236049 8.59730031,11.7134228 L10.228871,9.84854416 L11.8604408,11.7134228 C12.4822587,12.4227864 13.7027562,12.4236049 14.3245741,11.7134228 L14.727273,11.2515979 L14.727273,9.81818171 C14.727273,8.75076195 14.0423227,7.85183315 13.0909094,7.51384985 L13.0909094,6.54545513 C13.0909094,6.09381881 12.7243642,5.72727346 12.2727272,5.72727346 C11.8210911,5.72727346 11.4545459,6.09381881 11.4545459,6.54545513 L11.4545459,7.3636368 L8.18181872,7.3636368 L8.18181872,6.54545513 C8.18181872,6.09381881 7.81527261,5.72727346 7.36363649,5.72727346 C6.91199994,5.72727346 6.54545471,6.09381881 6.54545471,6.54545513 L6.54545471,7.3636368 L3.27272735,7.3636368 L3.27272735,6.54545513 C3.27272735,6.09381881 2.90618191,5.72727346 2.45454557,5.72727346 Z M4.50000003,12.3334532 L4.09889922,12.7920823 C3.47708089,13.5022641 2.57972732,13.9090921 1.63636368,13.9090921 C1.05218162,13.9090921 0.49418189,13.7368643 0,13.4488649 L0,17.1818185 C0,17.6334551 0.366545421,18 0.818181839,18 L13.9090916,18 C14.3607278,18 14.727273,17.6334551 14.727273,17.1818185 L14.727273,13.4488649 C14.233091,13.7360465 13.6750919,13.9090921 13.0909094,13.9090921 C12.1475457,13.9090921 11.2501925,13.5022641 10.6283738,12.7920823 L10.2272734,12.3334532 L9.82617215,12.7920823 C9.20435425,13.5022641 8.30700024,13.9090921 7.36363649,13.9090921 C6.42027318,13.9090921 5.52291917,13.5022641 4.90110084,12.7920823 L4.50000003,12.3334532 Z" id="Shape"></path>
            </g>
        </g>
    </g>
</svg>