<?xml version="1.0" encoding="UTF-8"?>
<svg width="19px" height="17px" viewBox="0 0 19 17" version="1.1" xmlns="http://www.w3.org/2000/svg" xmlns:xlink="http://www.w3.org/1999/xlink">
    <!-- Generator: Sketch 52.5 (67469) - http://www.bohemiancoding.com/sketch -->
    <title>Ville</title>
    <desc>Created with Sketch.</desc>
    <g id="PROFIL" stroke="none" stroke-width="1" fill="none" fill-rule="evenodd">
        <g id="Profil" transform="translate(-756.000488, -666.000244)" fill="#D3D3D3">
            <g id="Ville" transform="translate(756.055542, 666.000000)">
                <path d="M0,0 L0,17 L9.4444437,17 L18.8888874,17 L18.8888874,3.77777781 L9.4444437,3.77777781 L9.4444437,0 L0,0 Z M1.88888884,1.88888884 L3.77777672,1.88888884 L3.77777672,3.77777767 L1.88888884,3.77777767 L1.88888884,1.88888884 Z M5.66666651,1.88888884 L7.55555439,1.88888884 L7.55555439,3.77777767 L5.66666651,3.77777767 L5.66666651,1.88888884 Z M1.88888884,5.66666651 L3.77777672,5.66666651 L3.77777672,7.5555563 L1.88888884,7.5555563 L1.88888884,5.66666651 Z M5.66666651,5.66666651 L7.55555439,5.66666651 L7.55555439,7.5555563 L5.66666651,7.5555563 L5.66666651,5.66666651 Z M9.4444437,5.66666651 L17,5.66666651 L17,15.1111112 L9.4444437,15.1111112 L9.4444437,13.2222223 L11.3333328,13.2222223 L11.3333328,11.3333335 L9.4444437,11.3333335 L9.4444437,9.44444443 L11.3333328,9.44444443 L11.3333328,7.55555547 L9.4444437,7.55555547 L9.4444437,5.66666651 Z M13.2222223,7.55555534 L13.2222223,9.44444466 L15.1111097,9.44444466 L15.1111097,7.55555534 L13.2222223,7.55555534 Z M1.88888884,9.4444437 L3.77777672,9.4444437 L3.77777672,11.333334 L1.88888884,11.333334 L1.88888884,9.4444437 Z M5.66666651,9.4444437 L7.55555439,9.4444437 L7.55555439,11.333334 L5.66666651,11.333334 L5.66666651,9.4444437 Z M13.2222223,11.333333 L13.2222223,13.2222214 L15.1111097,13.2222214 L15.1111097,11.333333 L13.2222223,11.333333 Z M1.88888884,13.2222223 L3.77777672,13.2222223 L3.77777672,15.1111107 L1.88888884,15.1111107 L1.88888884,13.2222223 Z M5.66666651,13.2222223 L7.55555439,13.2222223 L7.55555439,15.1111107 L5.66666651,15.1111107 L5.66666651,13.2222223 Z" id="Shape"></path>
            </g>
        </g>
    </g>
</svg>