<?xml version="1.0" encoding="UTF-8"?>
<svg width="13px" height="24px" viewBox="0 0 13 24" version="1.1" xmlns="http://www.w3.org/2000/svg" xmlns:xlink="http://www.w3.org/1999/xlink">
    <!-- Generator: Sketch 52.5 (67469) - http://www.bohemiancoding.com/sketch -->
    <title>Facebook</title>
    <desc>Created with Sketch.</desc>
    <g id="Symbols" stroke="none" stroke-width="1" fill="none" fill-rule="evenodd">
        <g id="FOOTER-Symbol" transform="translate(-1603.000000, -104.000000)" fill="#7AE3D8">
            <g id="Facebook" transform="translate(1602.999023, 104.000000)">
                <path d="M12.6300001,8.39999986 L8.40000051,8.39999986 L8.40000051,6 C8.40000051,4.76160014 8.50079982,3.98159981 10.2756003,3.98159981 L12.5172003,3.98159981 L12.5172003,0.16559973 C11.4264,0.0527998935 10.3296006,-0.00239996921 9.23160045,0 C5.97599992,0 3.60000017,1.98840004 3.60000017,5.63879979 L3.60000017,8.39999986 L0,8.39999986 L0,13.2000003 L3.60000017,13.1988001 L3.60000017,24 L8.40000051,24 L8.40000051,13.1963997 L12.0792008,13.1951995 L12.6300001,8.39999986 Z" id="Shape"></path>
            </g>
        </g>
    </g>
</svg>