<?xml version="1.0" encoding="UTF-8"?>
<svg width="25px" height="24px" viewBox="0 0 25 24" version="1.1" xmlns="http://www.w3.org/2000/svg" xmlns:xlink="http://www.w3.org/1999/xlink">
    <!-- Generator: Sketch 52.5 (67469) - http://www.bohemiancoding.com/sketch -->
    <title>Salaire</title>
    <desc>Created with Sketch.</desc>
    <g id="EMPLOI" stroke="none" stroke-width="1" fill="none" fill-rule="evenodd">
        <g id="Emploi-Page-Job" transform="translate(-1591.000000, -431.000000)" fill="#3DC5B7">
            <g id="Salaire" transform="translate(1591.221680, 430.999969)">
                <path d="M12,0 C5.38320029,0 0,5.38320029 0,12 C0,18.6168008 5.38320029,24 12,24 C18.6168008,24 24,18.6168008 24,12 C24,5.38320029 18.6168008,0 12,0 Z M15.3815991,16.4963995 C15.2363989,16.9080007 15.0311994,17.2656007 14.7660001,17.5656005 C14.5008004,17.8668 14.1816004,18.1080001 13.8083997,18.2904005 C13.6163997,18.3839994 13.413599,18.4596019 13.1999999,18.5184017 L13.1999999,20.3999994 L10.8000003,20.3999994 L10.8000003,18.5412006 C10.5684005,18.4812012 10.3404,18.4068013 10.1184005,18.3072012 C9.72360126,18.130802 9.37320032,17.876402 9.06720027,17.5428016 C8.76120023,17.2104008 8.51640083,16.7916009 8.33280101,16.2840025 C8.15040053,15.7775997 8.05920029,15.1056004 8.05920029,14.4000005 L10.2672001,14.4000005 C10.2672001,14.8175998 10.3139994,15.2316003 10.4088,15.5111995 C10.5024001,15.7907996 10.6283996,16.0139993 10.7856001,16.1820002 C10.9440002,16.35 11.1239997,16.4675995 11.3244005,16.5360002 C11.5248003,16.6044 11.7312001,16.6379996 11.940001,16.6379996 C12.1788013,16.6379996 12.3888002,16.5996005 12.5700004,16.5228003 C12.7499997,16.4460002 12.9024008,16.3404 13.0236008,16.2048001 C13.1472001,16.0692002 13.2372013,15.9084001 13.2984007,15.7235995 C13.3596001,15.5376003 13.3896011,15.3359999 13.3896011,15.1188003 C13.3896011,14.8716001 13.3620011,14.6543995 13.3056012,14.466 C13.2492012,14.2776005 13.1568016,14.1072004 13.0308013,13.9536001 C12.9036013,13.7999998 12.7392013,13.6583998 12.5376011,13.5300007 C12.3372014,13.4004009 12.0912016,13.2732014 11.8008007,13.1496008 C11.3028009,12.9324002 10.8492007,12.7032004 10.4412005,12.4644006 C10.0332005,12.2268003 9.68520063,11.9520002 9.39480112,11.6388004 C9.10440162,11.3256012 8.87880082,10.9620006 8.71800103,10.5432006 C8.55720131,10.1256008 8.47800132,9.62760094 8.47800132,9.05039968 C8.47800132,8.55000006 8.5500018,8.09400016 8.69160184,7.68120009 C8.83440234,7.26959965 9.03840126,6.91079982 9.30360198,6.60480034 C9.56880158,6.29760023 9.88560152,6.05040049 10.2540017,5.85840011 C10.4268005,5.76840031 10.6091999,5.69760029 10.8000003,5.63880005 L10.8000003,3.60000014 L13.1999999,3.60000014 L13.1999999,5.64120043 C13.4507996,5.71920059 13.6908004,5.8164004 13.9103999,5.95080017 C14.2667995,6.16800047 14.571599,6.45120003 14.8199999,6.7980001 C15.0696,7.14600003 15.2628006,7.5564001 15.3971996,8.03039941 C15.5304,8.49719946 15.5964001,9.02159962 15.5988003,9.59999901 L13.3896011,9.59999901 C13.3860004,8.90759952 13.2624011,8.38439948 13.0140011,8.0387993 C12.7620014,7.68839961 12.4248011,7.51319976 12.0024009,7.51319976 C11.7720005,7.51319976 11.5752011,7.55279971 11.410801,7.63199962 C11.2452017,7.71119978 11.1084014,7.82039912 11.0016016,7.95840027 C10.8936015,8.09639991 10.8144014,8.26079986 10.7652021,8.44920036 C10.713602,8.63759986 10.688402,8.84160001 10.688402,9.05880107 C10.688402,9.27600062 10.713602,9.47280151 10.7652021,9.65040086 C10.815602,9.82680159 10.9032019,9.99120154 11.0292024,10.1412015 C11.1540025,10.2912014 11.319602,10.4328014 11.5248026,10.5648009 C11.7312024,10.6968009 11.9868026,10.833601 12.2940023,10.975201 C12.7872025,11.2044013 13.2372022,11.4396013 13.6416022,11.682001 C14.0472023,11.9232011 14.3940017,12.2016002 14.6844026,12.5160005 C14.974803,12.8304009 15.2004029,13.1975999 15.3600018,13.6152012 C15.5195988,14.0340002 15.5999994,14.5296003 15.5999994,15.1007999 C15.5999994,15.6191999 15.5267997,16.0835997 15.3815991,16.4963995 Z" id="Shape"></path>
            </g>
        </g>
    </g>
</svg>