<svg id="icons8_name" xmlns="http://www.w3.org/2000/svg" width="28" height="28" viewBox="0 0 28 28">
  <path id="Shape" d="M24.889,28H3.111A3.115,3.115,0,0,1,0,24.889V3.111A3.115,3.115,0,0,1,3.111,0H24.889A3.115,3.115,0,0,1,28,3.111V24.889A3.115,3.115,0,0,1,24.889,28ZM14,17.111a14.833,14.833,0,0,0-6.579,1.417c-1.751.889-2.755,2.074-2.755,3.25v1.555H23.333V21.778c0-1.177-1-2.361-2.755-3.25A14.831,14.831,0,0,0,14,17.111ZM14,4.667A4.565,4.565,0,0,0,9.333,9.333,4.565,4.565,0,0,0,14,14a4.565,4.565,0,0,0,4.667-4.667A4.564,4.564,0,0,0,14,4.667Z" fill="#d0ceda"/>
</svg>
