<svg id="icons8_indeterminate_checkbox_filled" xmlns="http://www.w3.org/2000/svg" width="39" height="39" viewBox="0 0 39 39">
  <g id="Group">
    <path id="Shape" d="M32.5,39H6.5A6.462,6.462,0,0,1,0,32.5V6.5A6.462,6.462,0,0,1,6.5,0h26A6.462,6.462,0,0,1,39,6.5v26A6.462,6.462,0,0,1,32.5,39ZM8.357,17.643v3.714H30.643V17.643Z" fill="#d0ceda"/>
  </g>
</svg>
