<?xml version="1.0" encoding="UTF-8"?>
<svg width="18px" height="14px" viewBox="0 0 18 14" version="1.1" xmlns="http://www.w3.org/2000/svg" xmlns:xlink="http://www.w3.org/1999/xlink">
    <!-- Generator: Sketch 52.5 (67469) - http://www.bohemiancoding.com/sketch -->
    <title>Messagerie</title>
    <desc>Created with Sketch.</desc>
    <g id="Symbols" stroke="none" stroke-width="1" fill="none" fill-rule="evenodd">
        <g id="NAV-LATERALE-ETUDIANTS" transform="translate(0.242188, -193.000000)" fill="#5DDACD">
            <g id="Messagerie" transform="translate(0.031250, 193.000000)">
                <path d="M1.7000025,0 C0.762451163,0 0,0.762449882 0,1.70000005 L0,11.9000003 C0,12.8375509 0.762451163,13.6000004 1.7000025,13.6000004 L15.3000229,13.6000004 C16.2375748,13.6000004 17.0000248,12.8375509 17.0000248,11.9000003 L17.0000248,1.70000005 C17.0000248,0.762449882 16.2375748,0 15.3000229,0 L1.7000025,0 Z M1.70000243,1.70000005 L15.3000219,1.70000005 L15.3000219,1.70498052 L8.50001216,5.950001 L1.70000243,1.70332036 L1.70000243,1.70000005 Z M1.70000243,3.40332055 L8.50001263,7.65000104 L15.3000228,3.40498071 L15.3016832,11.9000018 L1.70000243,11.9000018 L1.70000243,3.40332055 Z" id="Shape"></path>
            </g>
        </g>
    </g>
</svg>