<svg id="icons8_arrows_long_right" xmlns="http://www.w3.org/2000/svg" width="32" height="17.987" viewBox="0 0 32 17.987">
  <g id="Group">
    <path id="Shape" d="M23.007,0,21.124,1.924l5.731,5.731H0v2.677H26.855l-5.731,5.731,1.882,1.924L32,8.993Z" fill="#1f4171"/>
  </g>
</svg>
