<svg id="icons8_save" xmlns="http://www.w3.org/2000/svg" width="19" height="19" viewBox="0 0 19 19">
  <path id="Shape" d="M16.888,19H2.111A2.114,2.114,0,0,1,0,16.889V2.111A2.114,2.114,0,0,1,2.111,0H14.778L19,4.222V16.889A2.114,2.114,0,0,1,16.888,19ZM9.5,10.555a3.167,3.167,0,1,0,3.167,3.167A3.17,3.17,0,0,0,9.5,10.555ZM2.111,2.111V6.333H12.667V2.111Z" fill="#fff"/>
</svg>
