<?xml version="1.0" encoding="UTF-8"?>
<svg width="25px" height="25px" viewBox="0 0 25 25" version="1.1" xmlns="http://www.w3.org/2000/svg" xmlns:xlink="http://www.w3.org/1999/xlink">
    <!-- Generator: Sketch 52.5 (67469) - http://www.bohemiancoding.com/sketch -->
    <title>Linkedin</title>
    <desc>Created with Sketch.</desc>
    <g id="Symbols" stroke="none" stroke-width="1" fill="none" fill-rule="evenodd">
        <g id="FOOTER-Symbol" transform="translate(-1702.000000, -104.000000)" fill="#7AE3D8">
            <g id="Linkedin" transform="translate(1702.000000, 104.000000)">
                <g id="Group">
                    <path d="M20.3125015,0 L4.6875,0 C2.09960975,0 0,2.09960975 0,4.6875 L0,20.3125015 C0,22.9003921 2.09960975,25 4.6875,25 L20.3125015,25 C22.9003921,25 25,22.9003921 25,20.3125015 L25,4.6875 C25,2.09960975 22.9003921,0 20.3125015,0 Z M7.72986794,21.2214546 L3.84615377,21.2214546 L3.82361817,9.59284878 L7.70733086,9.59284878 L7.72986794,21.2214546 Z M5.6903552,8.07166481 L5.66781821,8.07166481 C4.39828774,8.07166481 3.57947683,7.19651459 3.57947683,6.10727213 C3.57947683,4.99173632 4.4245798,4.14663458 5.71664733,4.14663458 C7.00871467,4.14663458 7.80123231,4.99173632 7.82752419,6.10727213 C7.82752419,7.19651459 7.0049579,8.07166481 5.6903552,8.07166481 Z M21.1951637,21.2214546 L17.2776451,21.2214546 L17.2776451,14.9038459 C17.2776451,13.3751498 16.8719963,12.3347351 15.5048082,12.3347351 C14.4606386,12.3347351 13.897236,13.0371089 13.6268033,13.7169469 C13.525391,13.9610874 13.4990999,14.2953734 13.4990999,14.6371694 L13.4990999,21.2214546 L9.56280111,21.2214546 L9.54026413,9.59284884 L13.4765629,9.59284884 L13.4990999,11.2342243 C14.0024045,10.4567302 14.8399946,9.35621929 16.8457039,9.35621929 C19.3321829,9.35621929 21.1914083,10.9788157 21.1914083,14.4681487 L21.1914083,21.2214546 L21.1951637,21.2214546 Z" id="Shape"></path>
                </g>
            </g>
        </g>
    </g>
</svg>