<?xml version="1.0" encoding="UTF-8"?>
<svg width="37px" height="39px" viewBox="0 0 37 39" version="1.1" xmlns="http://www.w3.org/2000/svg" xmlns:xlink="http://www.w3.org/1999/xlink">
    <!-- Generator: Sketch 52.5 (67469) - http://www.bohemiancoding.com/sketch -->
    <title>Pouce</title>
    <desc>Created with Sketch.</desc>
    <g id="PROFIL" stroke="none" stroke-width="1" fill="none" fill-rule="evenodd">
        <g id="Profil-D" transform="translate(-928.000000, -435.000000)" fill="#000000">
            <g id="Pouce" transform="translate(928.000244, 435.000000)">
                <g id="Group">
                    <path d="M19.4465948,0 L18.9266317,0.467966215 L7.64344765,11.6471599 L0,11.6471599 L0,38.2692375 L28.0259753,38.2692375 C30.3723036,38.2692375 32.4196562,36.6118589 32.9136203,34.3175226 L36.5013618,17.6787242 C37.1578122,14.6044463 34.7529872,11.6471599 31.6137147,11.6471599 L22.046406,11.6471599 L22.3583834,10.3992491 C22.6963599,10.1392682 22.9108442,10.0287766 23.3983097,9.35932444 C24.1782522,8.29340121 24.9581968,6.64252128 24.9581968,4.41968105 C24.9581968,2.04735304 22.8133512,0 20.1225455,0 L19.4465948,0 Z M20.6425075,3.48374844 C21.3444568,3.6202378 21.6304353,3.90621719 21.6304353,4.419681 C21.6304353,5.92107355 21.175469,6.85050662 20.7465002,7.43546349 C20.3175306,8.02042223 20.0185527,8.16341132 20.0185527,8.16341132 L19.4465942,8.47538862 L19.2386088,9.15134008 L18.2506803,12.8950706 L17.7307182,14.9749208 L31.6137147,14.9749208 C32.712134,14.9749208 33.4530802,15.9303512 33.2255974,17.0027738 L29.6898526,33.641576 C29.5208649,34.4215197 28.8189162,34.9414816 28.0259737,34.9414816 L9.98327827,34.9414816 L9.98327827,13.9869916 L20.6425075,3.48374844 Z M3.3277595,14.9749174 L6.65552711,14.9749174 L6.65552711,34.9414816 L3.3277595,34.9414816 L3.3277595,14.9749174 Z" id="Shape"></path>
                </g>
            </g>
        </g>
    </g>
</svg>