<?xml version="1.0" encoding="UTF-8"?>
<svg width="22px" height="24px" viewBox="0 0 22 24" version="1.1" xmlns="http://www.w3.org/2000/svg" xmlns:xlink="http://www.w3.org/1999/xlink">
    <!-- Generator: Sketch 52.5 (67469) - http://www.bohemiancoding.com/sketch -->
    <title>Annee creation</title>
    <desc>Created with Sketch.</desc>
    <g id="RECH-NIV2-3" stroke="none" stroke-width="1" fill="none" fill-rule="evenodd">
        <g id="Page-Université" transform="translate(-655.000000, -559.000244)" fill="#3C3850">
            <g id="Annee-creation" transform="translate(655.000000, 559.000061)">
                <path d="M3.60000017,0 L3.60000017,2.40000004 L2.40000006,2.40000004 C1.08000012,2.40000004 0,3.48000026 0,4.80000007 L0,21.6000009 C0,22.920001 1.08000012,24 2.40000006,24 L19.2000005,24 C20.5200014,24 21.6000004,22.920001 21.6000004,21.6000009 L21.6000004,4.80000007 C21.6000004,3.48000026 20.5200014,2.40000004 19.2000005,2.40000004 L17.9999999,2.40000004 L17.9999999,0 L15.6,0 L15.6,2.40000004 L6.00000039,2.40000004 L6.00000039,0 L3.60000017,0 Z M2.4000001,8.40000057 L19.2000012,8.40000057 L19.2000012,21.6000004 L2.4000001,21.6000004 L2.4000001,8.40000057 Z M11.7,10.8000002 L7.20000029,12.5460941 L7.20000029,14.482032 L9.60000014,13.6382819 L9.60000014,19.2000008 L12,19.2000008 L12,10.8000002 L11.7,10.8000002 Z" id="Shape"></path>
            </g>
        </g>
    </g>
</svg>