<svg xmlns="http://www.w3.org/2000/svg" width="30" height="30" viewBox="0 0 30 30">
  <g id="icons8_play_button_circled_filled" transform="translate(30) rotate(90)">
    <path id="Shape" d="M15,30A15,15,0,1,1,30,15,15.017,15.017,0,0,1,15,30ZM11.608,7.851,11.65,22.2l9.558-7.219-9.6-7.126Z" fill="#d0ceda"/>
  </g>
</svg>
