<svg id="icons8_location_filled_2" xmlns="http://www.w3.org/2000/svg" width="23" height="34.5" viewBox="0 0 23 34.5">
  <g id="Group">
    <path id="Shape" d="M11.5,34.5h0a.708.708,0,0,1-.539-.247,63.152,63.152,0,0,1-5.648-7.764A44.632,44.632,0,0,1,1.65,19.263,21.859,21.859,0,0,1,0,11.5a11.5,11.5,0,0,1,23,0,21.568,21.568,0,0,1-1.65,7.67A45.714,45.714,0,0,1,17.687,26.4a65.624,65.624,0,0,1-5.648,7.848A.737.737,0,0,1,11.5,34.5Zm0-26.593a4.312,4.312,0,1,0,4.312,4.312A4.317,4.317,0,0,0,11.5,7.907Z" fill="#d0ceda"/>
  </g>
</svg>
