<svg xmlns="http://www.w3.org/2000/svg" width="18.109" height="18.137" viewBox="0 0 18.109 18.137">
  <g id="icons8_flag" transform="translate(0)">
    <path id="Shape" d="M.99,0A1.006,1.006,0,0,0,0,1.02v16.1a1.006,1.006,0,1,0,2.012,0V11.08h6.8a1.006,1.006,0,0,1,.9.556l.45.9a1,1,0,0,0,.9.556H17.1a1.006,1.006,0,0,0,1.006-1.006V3.032A1.006,1.006,0,0,0,17.1,2.026H12.311a1.006,1.006,0,0,1-.9-.556l-.45-.9a1,1,0,0,0-.9-.556h-8.9A1.006,1.006,0,0,0,.99,0Z" fill="#3c3850"/>
  </g>
</svg>
