<svg id="icons8_change_1" xmlns="http://www.w3.org/2000/svg" width="41.053" height="39" viewBox="0 0 41.053 39">
  <path id="Shape" d="M8.211,39v-4.1H0V22.579H4.1V30.79H8.211V26.684l6.158,6.158L8.212,39Zm32.842-6.158H18.473V22.579h-8.21a2.055,2.055,0,0,1-2.053-2.053V2.053A2.055,2.055,0,0,1,10.264,0H28.737A2.055,2.055,0,0,1,30.79,2.053v8.211H41.053V32.841ZM22.579,22.579v6.158H36.948V14.368H30.79v6.158a2.055,2.055,0,0,1-2.053,2.053Z" fill="#d0ceda"/>
</svg>
