<?xml version="1.0" encoding="UTF-8"?>
<svg width="24px" height="18px" viewBox="0 0 24 18" version="1.1" xmlns="http://www.w3.org/2000/svg" xmlns:xlink="http://www.w3.org/1999/xlink">
    <!-- Generator: Sketch 52.5 (67469) - http://www.bohemiancoding.com/sketch -->
    <title>Appareil photo</title>
    <desc>Created with Sketch.</desc>
    <g id="PROFIL" stroke="none" stroke-width="1" fill="none" fill-rule="evenodd">
        <g id="Profil" transform="translate(-422.000488, -620.000244)" fill="#FFFFFF">
            <g id="Appareil-photo" transform="translate(422.000000, 620.000000)">
                <path d="M9.2126957,0 C8.53049484,0 7.90763983,0.384721912 7.60253926,0.994921915 L7.24746136,1.70507812 C6.94236148,2.31437811 6.31860477,2.70000011 5.63730492,2.70000011 L1.80000004,2.70000011 C0.805499956,2.70000011 0,3.50549993 0,4.5 L0,16.2000006 C0,17.1944994 0.805499956,18 1.80000004,18 L21.6000011,18 C22.5945002,18 23.3999996,17.1944994 23.3999996,16.2000006 L23.3999996,4.5 C23.3999996,3.50549993 22.5945002,2.70000011 21.6000011,2.70000011 L17.7626961,2.70000011 C17.0804966,2.70000011 16.4576395,2.31527826 16.1525397,1.70507812 L15.7974618,0.994921915 C15.4923605,0.385621827 14.8686052,0 14.1873053,0 L9.2126957,0 Z M3.59999977,0.899999976 C3.10319977,0.899999976 2.69999981,1.30320046 2.69999981,1.80000114 L5.39999962,1.80000114 C5.39999962,1.30320046 4.99679974,0.899999976 4.49999974,0.899999976 L3.59999977,0.899999976 Z M11.6999998,3.5999999 C15.1740006,3.5999999 18,6.42600046 18,9.9000001 C18,13.3740009 15.1740006,16.2000003 11.6999998,16.2000003 C8.22600017,16.2000003 5.39999962,13.3740009 5.39999962,9.9000001 C5.39999962,6.42600046 8.22600017,3.5999999 11.6999998,3.5999999 Z M19.8000002,4.5 C20.2968005,4.5 20.7000008,4.9032 20.7000008,5.4000001 C20.7000008,5.89680019 20.2968005,6.30000019 19.8000002,6.30000019 C19.3031998,6.30000019 18.8999996,5.89680019 18.8999996,5.4000001 C18.8999996,4.9032 19.3031998,4.5 19.8000002,4.5 Z M11.7000003,5.39999962 C9.21471839,5.39999962 7.19999981,7.41471879 7.19999981,9.89999962 C7.19999981,12.3852803 9.21471839,14.3999996 11.7000003,14.3999996 C14.1852812,14.3999996 16.2000008,12.3852803 16.2000008,9.89999962 C16.2000008,7.41471799 14.1852812,5.39999962 11.7000003,5.39999962 Z" id="Shape"></path>
            </g>
        </g>
    </g>
</svg>