<?xml version="1.0" encoding="UTF-8"?>
<svg width="19px" height="19px" viewBox="0 0 19 19" version="1.1" xmlns="http://www.w3.org/2000/svg" xmlns:xlink="http://www.w3.org/1999/xlink">
    <!-- Generator: Sketch 52.5 (67469) - http://www.bohemiancoding.com/sketch -->
    <title>Site Web</title>
    <desc>Created with Sketch.</desc>
    <g id="PROFIL" stroke="none" stroke-width="1" fill="none" fill-rule="evenodd">
        <g id="Profil" transform="translate(-756.000488, -795.000244)" fill="#D3D3D3">
            <g id="Site-Web" transform="translate(756.500000, 795.500000)">
                <g id="Group">
                    <path d="M9,0 C4.03755981,0 0,4.03755981 0,9 C0,13.9624407 4.03755981,18 9,18 C13.9624407,18 18,13.9624407 18,9 C18,4.03755981 13.9624407,0 9,0 Z M8.30769253,1.55769229 L8.30769253,4.15384579 L6.38221169,4.15384579 C6.47956746,3.90234385 6.5742189,3.66165875 6.68509633,3.43990364 C7.17457949,2.46093774 7.74248814,1.83894227 8.30769253,1.55769229 Z M9.69230747,1.55769229 C10.2575118,1.83894227 10.8254205,2.46093774 11.3149038,3.43990364 C11.4257811,3.66165875 11.5204326,3.90234385 11.6177883,4.15384579 L9.69230747,4.15384579 L9.69230747,1.55769229 Z M5.8846159,2.05528831 C5.73046923,2.29597321 5.58443555,2.54477126 5.4519235,2.81249976 C5.24639462,3.22626143 5.07331766,3.67788427 4.91105801,4.15384566 L3.11538458,4.15384579 C3.85637063,3.25600935 4.8082939,2.53665877 5.8846159,2.05528831 Z M12.1153841,2.05528831 C13.1917066,2.53665877 14.14363,3.25600935 14.8846159,4.15384579 L13.0889422,4.15384566 C12.9266825,3.67788427 12.7536055,3.22626143 12.5480766,2.81249976 C12.4155645,2.54477126 12.2695308,2.29597321 12.1153841,2.05528831 Z M2.20673089,5.53846169 L4.52163506,5.53846169 C4.33233249,6.40384632 4.2160464,7.33413481 4.17548118,8.30769253 L1.40625,8.30769253 C1.49278847,7.31520452 1.77674268,6.38221171 2.20673089,5.53846169 Z M5.94951933,5.53846169 L8.30769253,5.53846169 L8.30769253,8.30769253 L5.56009626,8.30769253 C5.60606982,7.31520452 5.7439905,6.38221171 5.94951933,5.53846169 Z M9.69230747,5.53846169 L12.0504811,5.53846169 C12.2560099,6.38221171 12.3939307,7.31520452 12.4399042,8.30769253 L9.69230747,8.30769253 L9.69230747,5.53846169 Z M13.4783649,5.53846169 L15.7932692,5.53846169 C16.2232572,6.38221171 16.5072115,7.31520452 16.59375,8.30769253 L13.8245188,8.30769253 C13.7839539,7.33413481 13.6676679,6.40384632 13.4783649,5.53846169 Z M1.42788458,9.69230747 L4.17548116,9.69230747 C4.213342,10.6685695 4.33233249,11.5961537 4.52163506,12.4615383 L2.20673089,12.4615383 C1.77403847,11.615084 1.51712721,10.6874998 1.42788458,9.69230747 Z M5.56009626,9.69230747 L8.30769253,9.69230747 L8.30769253,12.4615383 L5.94951933,12.4615383 C5.7439905,11.6177883 5.6033655,10.6847955 5.56009626,9.69230747 Z M9.69230747,9.69230747 L12.4399042,9.69230747 C12.396635,10.6847955 12.2560099,11.6177883 12.0504811,12.4615383 L9.69230747,12.4615383 L9.69230747,9.69230747 Z M13.824519,9.69230747 L16.5721169,9.69230747 C16.482874,10.6874998 16.2259628,11.615084 15.7932702,12.4615383 L13.4783649,12.4615383 C13.6676679,11.5961537 13.7866584,10.6685695 13.824519,9.69230747 Z M3.11538458,13.8461542 L4.91105801,13.8461542 C5.07331766,14.3221157 5.24639462,14.7737382 5.4519235,15.1875002 C5.58443555,15.4552285 5.73046923,15.7040266 5.8846159,15.9447117 C4.8082939,15.4633415 3.85637063,14.7412863 3.11538458,13.8461542 Z M6.38221169,13.8461542 L8.30769253,13.8461542 L8.30769253,16.4423065 C7.74248814,16.1610568 7.17457949,15.539062 6.68509633,14.5600961 C6.5742189,14.3383415 6.47956746,14.0976565 6.38221169,13.8461542 Z M9.69230747,13.8461542 L11.6177883,13.8461542 C11.5204326,14.0976565 11.4257811,14.3383415 11.3149038,14.5600961 C10.8254205,15.539062 10.2575118,16.1610568 9.69230747,16.4423065 L9.69230747,13.8461542 Z M13.0889422,13.8461542 L14.8846159,13.8461542 C14.14363,14.7412863 13.1917066,15.4633415 12.1153841,15.9447117 C12.2695308,15.7040266 12.4155645,15.4552285 12.5480766,15.1875002 C12.7536055,14.7737382 12.9266825,14.3221157 13.0889422,13.8461542 Z" id="Shape"></path>
                </g>
            </g>
        </g>
    </g>
</svg>