<?xml version="1.0" encoding="UTF-8"?>
<svg width="17px" height="16px" viewBox="0 0 17 16" version="1.1" xmlns="http://www.w3.org/2000/svg" xmlns:xlink="http://www.w3.org/1999/xlink">
    <!-- Generator: Sketch 52.5 (67469) - http://www.bohemiancoding.com/sketch -->
    <title>Joindre 2</title>
    <desc>Created with Sketch.</desc>
    <g id="Symbols" stroke="none" stroke-width="1" fill="none" fill-rule="evenodd">
        <g id="TEXTE-Symbol" transform="translate(-632.003906, -10.000000)" fill="#D3D3D3">
            <g id="TEXTE" transform="translate(1.007812, 1.000000)">
                <g id="Joindre-2" transform="translate(630.999023, 9.586182)">
                    <g id="Group">
                        <path d="M12.2924414,0 C12.04461,0.00743506489 11.7967787,0.0594793042 11.5588598,0.138785045 C10.6071873,0.458486172 9.79182148,1.19206422 8.98141289,2.00247001 L3.74721193,7.23664884 C3.28128886,7.70256993 2.92441154,8.2701021 2.81536555,8.94172223 C2.70631981,9.61334323 2.90954185,10.3816173 3.48946714,10.9640184 C4.08426285,11.5588116 4.87980175,11.7372496 5.55142498,11.618291 C6.22304869,11.4993323 6.78562641,11.1375001 7.21685266,10.706275 L12.9665432,4.95660879 C13.1548948,4.80295458 13.2416363,4.55760194 13.1871128,4.31968464 C13.1325903,4.08424551 12.9467163,3.89837305 12.711277,3.84385005 C12.4733582,3.78932748 12.2280054,3.8760683 12.0743494,4.06441935 L6.32465935,9.81408509 C6.05204535,10.0866992 5.67534161,10.3072681 5.33333349,10.369226 C4.99132681,10.4311831 4.70136309,10.3915308 4.38166046,10.0718294 C4.04956675,9.73973593 4.01239204,9.45968773 4.06443644,9.13998636 C4.11648035,8.82028499 4.3172245,8.45101867 4.63940525,8.12883871 L9.87360573,2.89465945 C10.6394053,2.12886379 11.3754644,1.54398395 11.9553909,1.34819755 C12.5353165,1.15241137 12.9516735,1.19454303 13.6208181,1.863685 C14.121438,2.36182391 14.6517973,2.81287581 14.7905827,3.27136177 C14.8599758,3.49936577 14.8599758,3.72736999 14.711277,4.10407209 C14.5625782,4.48077419 14.2379189,4.99378337 13.6208181,5.61088136 C10.9888477,8.24284103 8.96902084,10.2626586 7.87112761,11.3605475 C6.89715004,12.3345215 5.97521687,12.9863154 5.15489483,13.1647534 C4.33457232,13.3431914 3.55638194,13.1523613 2.53779435,12.1337787 C1.51920676,11.1151953 1.16232944,10.1263515 1.26889718,9.10033405 C1.37546492,8.07431657 2.00000024,6.96155697 3.15241647,5.80914549 C4.54522943,4.41633898 7.45477104,1.74472635 7.45477104,1.74472635 C7.64807987,1.600985 7.74225521,1.35811085 7.69764614,1.12019355 C7.65303612,0.882276359 7.47707558,0.691447092 7.24659252,0.627010853 C7.01363134,0.560097097 6.76332092,0.63444593 6.60223055,0.812883849 C6.60223055,0.812883849 3.69021034,3.44979974 2.2403965,4.89712947 C0.956629813,6.18089169 0.148698881,7.5588288 0,8.9813754 C-0.148698881,10.403922 0.426270157,11.8066425 1.64560103,13.0259677 C2.86245394,14.2452939 4.17843914,14.6814753 5.41263962,14.4138184 C6.64684105,14.1461614 7.71499395,13.3010596 8.76332092,12.2527374 C9.86121464,11.1548485 11.8810415,9.13503004 14.513011,6.50307079 C15.2118959,5.80418959 15.6629496,5.18213442 15.9008675,4.57990669 C16.1387863,3.97767853 16.1486988,3.38536409 16,2.89465945 C15.705081,1.91325103 14.9095421,1.36554608 14.513011,0.971495345 C14.0594797,0.517965497 13.5563822,0.230482167 13.0458488,0.0991321782 C12.7905827,0.0322178074 12.5402727,-0.00743506489 12.2924414,0 Z" id="Shape"></path>
                    </g>
                </g>
            </g>
        </g>
    </g>
</svg>