<?xml version="1.0" encoding="UTF-8"?>
<svg width="22px" height="18px" viewBox="0 0 22 18" version="1.1" xmlns="http://www.w3.org/2000/svg" xmlns:xlink="http://www.w3.org/1999/xlink">
    <!-- Generator: Sketch 52.5 (67469) - http://www.bohemiancoding.com/sketch -->
    <title>Left</title>
    <desc>Created with Sketch.</desc>
    <g id="MESSAGERIE" stroke="none" stroke-width="1" fill="none" fill-rule="evenodd">
        <g id="MESSAGERIE-E" transform="translate(-698.999512, -780.000000)" fill="#3C3850">
            <g id="Mask-group" transform="translate(642.000000, 209.000122)">
                <g id="Group" transform="translate(13.000000, -51.999878)">
                    <g id="Left" transform="translate(44.000000, 623.065186)">
                        <g id="Group">
                            <path d="M21.1156272,17.9346924 C21.0896686,17.6127925 20.3922175,10.1294751 9.59470852,9.93045147 L9.59470852,14.5391634 L0,7.26871634 L9.59470852,0 L9.59470852,4.61563522 C13.300025,4.70043667 16.2577009,5.8634315 18.3950503,8.07346717 C22.1592068,11.9708837 22.0086405,17.6750954 21.9999886,17.9173865 L21.1156272,17.9346924 Z" id="Shape"></path>
                        </g>
                    </g>
                </g>
            </g>
        </g>
    </g>
</svg>