<?xml version="1.0" encoding="UTF-8"?>
<svg width="25px" height="32px" viewBox="0 0 25 32" version="1.1" xmlns="http://www.w3.org/2000/svg" xmlns:xlink="http://www.w3.org/1999/xlink">
    <!-- Generator: Sketch 52.5 (67469) - http://www.bohemiancoding.com/sketch -->
    <title>Lettre Motiv</title>
    <desc>Created with Sketch.</desc>
    <g id="CANDIDATURES-BOURSES" stroke="none" stroke-width="1" fill="none" fill-rule="evenodd">
        <g id="Candidature-Documents-Ajout-C" transform="translate(-704.000000, -667.000000)" fill="#D3D3D3">
            <g id="Lettre-Motiv" transform="translate(704.000000, 667.001221)">
                <g id="Group">
                    <path d="M0,0 L0,32 L24.615387,32 L24.615387,8.11538506 L24.269234,7.73076963 L16.8846176,0.346153855 L16.5000022,0 L0,0 Z M2.46153855,2.46153855 L14.7692325,2.46153855 L14.7692325,9.84615424 L22.1538489,9.84615424 L22.1538489,29.5384619 L2.46153855,29.5384619 L2.46153855,2.46153855 Z M17.230772,4.23076916 L20.3846188,7.38461494 L17.230772,7.38461494 L17.230772,4.23076916 Z M6.15384626,12.3076925 L6.15384626,14.7692299 L18.4615397,14.7692299 L18.4615397,12.3076925 L6.15384626,12.3076925 Z M6.15384626,17.2307701 L6.15384626,19.6923065 L18.4615397,19.6923065 L18.4615397,17.2307701 L6.15384626,17.2307701 Z M6.15384626,22.1538467 L6.15384626,24.6153831 L18.4615397,24.6153831 L18.4615397,22.1538467 L6.15384626,22.1538467 Z" id="Shape"></path>
                </g>
            </g>
        </g>
    </g>
</svg>