<?xml version="1.0" encoding="UTF-8"?>
<svg width="23px" height="24px" viewBox="0 0 23 24" version="1.1" xmlns="http://www.w3.org/2000/svg" xmlns:xlink="http://www.w3.org/1999/xlink">
    <!-- Generator: Sketch 52.5 (67469) - http://www.bohemiancoding.com/sketch -->
    <title>Modalites</title>
    <desc>Created with Sketch.</desc>
    <g id="RECH-NIV2-3" stroke="none" stroke-width="1" fill="none" fill-rule="evenodd">
        <g id="Page-Formation" transform="translate(-1286.000488, -447.999756)" fill="#3C3850">
            <g id="Modalites" transform="translate(1286.000488, 447.999756)">
                <path d="M11.0769234,0 C10.9225047,0.000318673922 10.7706339,0.0393711947 10.6352168,0.113581724 L0.569711567,5.6087737 C0.224844058,5.75167871 -8.80314803e-07,6.08823447 0,6.46153808 C0,6.97133888 0.413275684,7.38461494 0.923076975,7.38461494 L11.0769234,7.38461494 L21.2307707,7.38461494 C21.7405706,7.38461494 22.1538467,6.97133976 22.1538467,6.46153808 C22.1538467,6.0882327 21.929002,5.75167783 21.5841343,5.60877282 L11.5132219,0.109975955 C11.379087,0.0378909455 11.2292015,0.000110039338 11.0769234,0 Z M11.0769234,2.76923084 C11.8412309,2.76923084 12.4615383,3.38953806 12.4615383,4.15384531 C12.4615383,4.91815256 11.8412309,5.53845978 11.0769234,5.53845978 C10.3126159,5.53845978 9.69230843,4.91815256 9.69230843,4.15384531 C9.69230843,3.38953806 10.3126159,2.76923084 11.0769234,2.76923084 Z M2.76923084,9.23077011 L2.76923084,12.9230766 L4.61538506,12.9230766 L4.61538506,9.23077011 L2.76923084,9.23077011 Z M6.46153879,9.23077011 L6.46153879,12.9230766 L8.30769253,12.9230766 L8.30769253,9.23077011 L6.46153879,9.23077011 Z M10.1538458,9.23077011 L10.1538458,12.9230766 L12.000001,12.9230766 L12.000001,9.23077011 L10.1538458,9.23077011 Z M13.8461542,9.23077011 L13.8461542,12.9230766 L15.6923075,12.9230766 L15.6923075,9.23077011 L13.8461542,9.23077011 Z M17.5384617,9.23077011 L17.5384617,12.9230766 L19.3846169,12.9230766 L19.3846169,9.23077011 L17.5384617,9.23077011 Z M2.76923078,14.7692308 C2.43633577,14.7645229 2.12669344,14.9394239 1.95887244,15.2269611 C1.79105143,15.5144983 1.79105231,15.8701225 1.9588742,16.157658 C2.12669653,16.4451935 2.43633935,16.6200944 2.76923429,16.6153847 L3.29747596,16.6153847 C2.75612379,17.9811403 1.84615386,20.7458037 1.84615386,24 L20.3076922,24 C20.3076922,20.7458037 19.3977218,17.9811403 18.8563701,16.6153847 L19.384615,16.6153847 C19.7175105,16.6200926 20.0271524,16.4451917 20.1949734,16.1576545 C20.3627933,15.870119 20.3627933,15.5144948 20.1949712,15.2269575 C20.027148,14.9394221 19.7175061,14.7645212 19.3846117,14.7692308 L2.76923078,14.7692308 Z M13.8461558,16.6153851 C14.0822334,16.6153851 14.3183388,16.7053567 14.4987999,16.8858178 C14.8597224,17.2467415 14.8597224,17.8301825 14.4987999,18.1911063 L10.8064918,21.883414 C10.626491,22.0634139 10.3901548,22.1538467 10.1538473,22.1538467 C9.91754,22.1538467 9.68120354,22.0634139 9.501203,21.883414 L7.65504885,20.0372603 C7.29412589,19.6763366 7.29412589,19.0928955 7.65504885,18.7319717 C8.0159718,18.3710497 8.59941463,18.3710497 8.96033751,18.7319717 L10.1538473,19.9254813 L13.1935113,16.8858178 C13.3739724,16.7053567 13.6100782,16.6153851 13.8461558,16.6153851 Z" id="Shape"></path>
            </g>
        </g>
    </g>
</svg>