<?xml version="1.0" encoding="UTF-8"?>
<svg width="18px" height="16px" viewBox="0 0 18 16" version="1.1" xmlns="http://www.w3.org/2000/svg" xmlns:xlink="http://www.w3.org/1999/xlink">
    <!-- Generator: Sketch 52.5 (67469) - http://www.bohemiancoding.com/sketch -->
    <title>Nombre Formations</title>
    <desc>Created with Sketch.</desc>
    <g id="ACCUEIL" stroke="none" stroke-width="1" fill="none" fill-rule="evenodd">
        <g id="Accueil-Bourses" transform="translate(-538.999023, -2404.000000)" fill="#3C3850">
            <g id="Nombre-Formations" transform="translate(539.000000, 2404.000000)">
                <g id="Group">
                    <path d="M8.25533142,0.00643066457 C8.06723531,0.0168804561 7.90003895,0.0900289971 7.77464155,0.236326083 L0.856882531,7.94827209 C0.713197792,8.11285612 0.357905033,8.71371954 0.188096169,9.49484141 C0.0705362322,9.82401043 0,10.2054272 0,10.6443186 C0,12.7186023 1.73466467,13.5493604 1.73466467,13.5493604 C1.76078947,13.5650353 1.78952584,13.5780977 1.81826298,13.5911601 L9.84369972,15.973712 C10.1049439,16.0494731 10.3870878,15.9580371 10.5542847,15.7438164 L17.0958514,7.86467407 C17.2578231,7.66351528 17.2917848,7.38659591 17.1794493,7.15408828 C17.1794493,7.15408828 16.9260419,6.56889976 17.2003491,5.90011322 C17.2917848,5.67805504 17.2578231,5.42464802 17.1115259,5.23393868 C16.9652288,5.0432303 16.727496,4.94656939 16.4897641,4.98053166 C16.2546439,5.01710642 16.0534853,5.17646501 15.9672748,5.39852319 C15.6250443,6.23711873 15.7243167,6.87455596 15.8418774,7.27948555 L9.80190024,14.5525404 L2.23625428,12.3162847 L2.19445532,12.2953858 C2.06905779,12.2483611 1.33757273,11.919193 1.33757273,10.6443186 C1.33757273,10.1427286 1.44468286,9.87625913 1.54656844,9.72473704 C1.64845402,9.57321589 1.75556415,9.50006733 1.90186117,9.45304264 C2.04815818,9.4060189 2.2153548,9.4060189 2.3407522,9.41124291 L2.36165194,9.41124291 L9.34210908,11.417603 C9.4021957,11.4332779 9.47011908,11.4385029 9.5302057,11.4385029 C9.73920103,11.4385029 9.9403596,11.331392 10.0735948,11.1668085 L17.1585506,2.99507095 C17.3126835,2.80697481 17.3649334,2.5561798 17.283947,2.32628441 C17.2055743,2.09377678 16.9991905,1.91874257 16.7614587,1.86649351 L8.44342804,0.00643066457 C8.38072934,-0.00663141549 8.31803063,0.00381837607 8.25533142,0.00643066457 Z M8.06723768,2.66067719 C8.14038625,2.65806506 8.20831052,2.66590241 8.27623352,2.68157679 L13.2503328,3.89375333 C13.5220276,3.95906425 13.6265254,4.13671086 13.4802284,4.3117452 L12.9368393,4.95963273 C12.7879296,5.13466677 12.4378617,5.21304043 12.163555,5.14772892 L7.21035506,3.93555252 C6.93604809,3.87024161 6.83416265,3.66908297 6.98045969,3.49666099 L7.50294912,2.86967314 C7.61267256,2.73905099 7.84779214,2.66590241 8.06723768,2.66067719 Z" id="Shape"></path>
                </g>
            </g>
        </g>
    </g>
</svg>