<?xml version="1.0" encoding="UTF-8"?>
<svg width="21px" height="20px" viewBox="0 0 21 20" version="1.1" xmlns="http://www.w3.org/2000/svg" xmlns:xlink="http://www.w3.org/1999/xlink">
    <!-- Generator: Sketch 52.5 (67469) - http://www.bohemiancoding.com/sketch -->
    <title>Nombre offres</title>
    <desc>Created with Sketch.</desc>
    <g id="EMPLOI" stroke="none" stroke-width="1" fill="none" fill-rule="evenodd">
        <g id="Emploi-Page-Entreprise" transform="translate(-670.000000, -496.000000)" fill="#3C3850">
            <g id="Nombre-offres" transform="translate(669.999512, 495.999939)">
                <g id="Group">
                    <path d="M14.0373099,0 C12.598548,0 11.3411959,0.74127487 10.7844569,2.15188708 C11.9542337,3.11523173 12.7611907,4.6071646 12.7611907,6.63081471 C12.7611907,8.78895769 11.7415471,10.7625625 10.6843691,12.0355545 C12.3702228,12.6736136 15.0100383,13.9528603 15.7638245,15.9139547 C18.4192782,15.766951 20.7932358,15.2321069 20.7932358,13.7120245 L20.7932358,13.2115851 C20.7932358,11.8197395 18.3629791,10.4560438 16.2142191,9.7335356 C16.1172591,9.7022592 15.5010938,9.55212719 15.8889338,8.35732862 C16.8991952,7.30327953 17.5904263,5.59865995 17.5904263,3.92844484 C17.5904263,1.35744071 15.9921493,0 14.0373099,0 Z M7.18129887,2.47717214 C5.09822194,2.47717214 3.3028969,3.90029553 3.3028969,6.63081472 C3.3028969,8.41675565 4.15051566,10.2402304 5.22958692,11.359962 C5.64870486,12.479694 4.88553541,13.2772679 4.72914786,13.3366949 C2.55223852,14.1342699 0,15.576159 0,17.0149207 L0,17.5654031 C0,19.5264985 3.74078124,19.9675095 7.20632058,19.9675095 C10.6781163,19.9675095 14.387619,19.5264985 14.387619,17.5654031 L14.387619,17.0149207 C14.387619,15.5323707 11.8197421,14.1061202 9.53336129,13.3366949 C9.42701931,13.3022902 8.7701927,12.604803 9.18305468,11.3349397 L9.15803253,11.3349397 C10.2308487,10.2120802 11.1597879,8.41050009 11.1597879,6.63081472 C11.1597879,3.90029553 9.26124781,2.47717214 7.18129887,2.47717214 Z" id="Shape"></path>
                </g>
            </g>
        </g>
    </g>
</svg>