<?xml version="1.0" encoding="UTF-8"?>
<svg width="19px" height="20px" viewBox="0 0 19 20" version="1.1" xmlns="http://www.w3.org/2000/svg" xmlns:xlink="http://www.w3.org/1999/xlink">
    <!-- Generator: Sketch 52.5 (67469) - http://www.bohemiancoding.com/sketch -->
    <title>Partager</title>
    <desc>Created with Sketch.</desc>
    <g id="Symbols" stroke="none" stroke-width="1" fill="none" fill-rule="evenodd">
        <g id="BLOC-BOURSE" transform="translate(-348.015625, -93.000000)" fill="#D3D3D3">
            <g id="Partager" transform="translate(348.390625, 93.000000)">
                <path d="M14.9999981,0 C13.3431441,0 11.9999991,1.34314582 11.9999991,3.00000042 C12.0006096,3.18812072 12.0189172,3.37579578 12.0546818,3.56051564 L4.9394526,7.71093726 C4.39751018,7.25184381 3.7102591,6.9999212 2.99999977,6.99999928 C1.34314526,6.99999928 0,8.34314466 0,9.9999994 C0,11.6568542 1.34314526,12.9999995 2.99999977,12.9999995 C3.70916181,12.9986084 4.39490334,12.7460396 4.93554677,12.2871089 L12.0546872,16.4394522 C12.0189205,16.6241717 12.0006106,16.8118489 12.0000002,16.9999969 C11.9999991,18.6568558 13.3431462,20 15.0000002,20 C16.6568552,19.9999988 17.9999981,18.6568511 17.9999981,16.9999969 C17.9999981,15.3431463 16.6568531,13.9999986 15.0000002,13.9999986 C14.2901655,14.0009284 13.6036552,14.2535257 13.0624992,14.7128892 L5.94531199,10.5605459 C5.98107871,10.3758264 5.999388,10.1881504 5.99999954,10 C5.99939015,9.81187165 5.98108139,9.62419629 5.94531574,9.43947554 L13.0605455,5.28906226 C13.6024879,5.74815512 14.2897385,6.00007772 14.9999981,5.99999964 C16.6568531,5.99999964 17.9999981,4.65685427 17.9999981,2.99999982 C17.9999981,1.34314552 16.6568531,0 14.9999981,0 Z" id="Shape"></path>
            </g>
        </g>
    </g>
</svg>