<?xml version="1.0" encoding="UTF-8"?>
<svg width="17px" height="16px" viewBox="0 0 17 16" version="1.1" xmlns="http://www.w3.org/2000/svg" xmlns:xlink="http://www.w3.org/1999/xlink">
    <!-- Generator: Sketch 52.5 (67469) - http://www.bohemiancoding.com/sketch -->
    <title>Picto Croix 2</title>
    <desc>Created with Sketch.</desc>
    <g id="Symbols" stroke="none" stroke-width="1" fill="none" fill-rule="evenodd">
        <g id="BLOC-BOURSE" transform="translate(-349.015625, -17.000000)" fill="#D3D3D3">
            <g id="Picto-Croix-2" transform="translate(349.390625, 17.000000)">
                <g id="Group">
                    <path d="M1.78869797,0 L0,1.78869772 L6.25061472,8 L0,14.2113018 L1.78869797,16 L8.03931317,9.78869724 L14.2899279,16 L16.0589695,14.2113018 L9.82801066,8 L16.0589695,1.78869772 L14.2899279,0 L8.03931317,6.21130228 L1.78869797,0 Z" id="Shape"></path>
                </g>
            </g>
        </g>
    </g>
</svg>