<?xml version="1.0" encoding="UTF-8"?>
<svg width="127px" height="125px" viewBox="0 0 127 125" version="1.1" xmlns="http://www.w3.org/2000/svg" xmlns:xlink="http://www.w3.org/1999/xlink">
    <!-- Generator: Sketch 52.5 (67469) - http://www.bohemiancoding.com/sketch -->
    <title>Profil Entreprise</title>
    <desc>Created with Sketch.</desc>
    <g id="MAIN-HOMEPAGE" stroke="none" stroke-width="1" fill="none" fill-rule="evenodd">
        <g id="Home-principale-VERS1-copy" transform="translate(-1199.000000, -3303.000000)">
            <g id="Profil-Entreprise" transform="translate(1199.000000, 3303.000000)">
                <path d="M-2.48689958e-13,62.6842041 C-2.48689958e-13,28.5336291 28.3806472,0.849121094 63.3899536,0.849121094 C98.3992562,0.849121094 126.779907,28.5336291 126.779907,62.6842041 C126.779907,96.8347755 98.3992562,124.519287 63.3899536,124.519287 C28.3806472,124.519287 -2.48689958e-13,96.8347755 -2.48689958e-13,62.6842041 Z" id="Oval" fill="#6196FF"></path>
                <g id="Valise-icon" transform="translate(35.000000, 35.476074)">
                    <path d="M4.87207031,36.7680664 L52.8720703,36.7680664 C53.4243551,36.7680664 53.8720703,37.2157817 53.8720703,37.7680664 L53.8720703,51.3901901 C53.8720703,51.9424749 53.4243551,52.3901901 52.8720703,52.3901901 L4.87207031,52.3901901 C4.31978556,52.3901901 3.87207031,51.9424749 3.87207031,51.3901901 L3.87207031,37.7680664 C3.87207031,37.2157817 4.31978556,36.7680664 4.87207031,36.7680664 Z" id="Rectangle" fill="#BECFF1"></path>
                    <g id="icons8_business_3" fill="#FFFFFF">
                        <path d="M19.9465243,0 L19.9465243,3.08536329 L5.69900712,3.08536329 C2.55030572,3.08536329 0,5.84676337 0,9.25609006 L0,46.2804495 C0,49.6836075 2.55600482,52.4511757 5.69900712,52.4511757 L51.2910653,52.4511757 C54.4340696,52.4511757 56.9900703,49.6836075 56.9900703,46.2804495 L56.9900703,9.25609006 C56.9900703,5.84676337 54.4397627,3.08536329 51.2910653,3.08536329 L37.0435478,3.08536329 L37.0435478,0 L19.9465243,0 Z M5.69897461,9.25610352 L51.2910347,9.25610352 L51.2910347,30.853672 L45.5920272,30.853672 C45.5920272,29.1496707 44.3162594,27.7683066 42.7425234,27.7683066 C41.1687874,27.7683066 39.8930197,29.1496732 39.8930197,30.853672 L17.0969896,30.853672 C17.0969896,29.1496707 15.8212233,27.7683066 14.2474859,27.7683066 C12.6737485,27.7683066 11.3979821,29.1496732 11.3979821,30.853672 L5.69897461,30.853672 L5.69897461,9.25610352 Z M5.69897461,37.024353 L51.2910347,37.024353 L51.2910347,46.2804527 L5.69897461,46.2804527 L5.69897461,37.024353 Z" id="Shape"></path>
                    </g>
                </g>
            </g>
        </g>
    </g>
</svg>