<?xml version="1.0" encoding="UTF-8"?>
<svg width="32px" height="36px" viewBox="0 0 32 36" version="1.1" xmlns="http://www.w3.org/2000/svg" xmlns:xlink="http://www.w3.org/1999/xlink">
    <!-- Generator: Sketch 52.5 (67469) - http://www.bohemiancoding.com/sketch -->
    <title>Publications</title>
    <desc>Created with Sketch.</desc>
    <g id="CREATION-PROFIL" stroke="none" stroke-width="1" fill="none" fill-rule="evenodd">
        <g id="Creation-Profil-C" transform="translate(-817.000000, -754.000000)" fill="#3DC5B7">
            <g id="Publications" transform="translate(817.286133, 753.999634)">
                <path d="M1.26583516,0 C0.567094121,0 0,0.607489074 0,1.35600256 L0,29.8320556 C0,32.827465 2.26711058,35.2560654 5.06334065,35.2560654 L24.0508683,35.2560654 L25.3167023,35.2560654 L26.5825382,35.2560654 C29.3787685,35.2560654 31.6458797,32.827465 31.6458797,29.8320556 L31.6458797,10.8480205 C31.6458797,10.0995076 31.078785,9.49201808 30.3800439,9.49201808 L27.848374,9.49201808 L27.848374,29.8320556 C27.848374,30.5819261 27.2812793,31.1880591 26.5825382,31.1880591 C25.883797,31.1880591 25.3167023,30.5819261 25.3167023,29.8320556 L25.3167023,1.35600256 C25.3167023,0.607489074 24.7496095,0 24.0508683,0 L1.26583516,0 Z M3.79750514,5.42401409 L21.5191982,5.42401409 L21.5191982,9.49200249 L3.79750514,9.49200249 L3.79750514,5.42401409 Z M3.79750514,14.9160366 L11.392513,14.9160366 L11.392513,17.6280193 L3.79750514,17.6280193 L3.79750514,14.9160366 Z M13.9241858,14.9160366 L21.5191975,14.9160366 L21.5191975,17.6280193 L13.9241858,17.6280193 L13.9241858,14.9160366 Z M3.79750514,20.3400497 L11.392513,20.3400497 L11.392513,23.0520439 L3.79750514,23.0520439 L3.79750514,20.3400497 Z M13.9241858,20.3400497 L21.5191975,20.3400497 L21.5191975,23.0520439 L13.9241858,23.0520439 L13.9241858,20.3400497 Z M3.79750514,25.7640629 L11.392513,25.7640629 L11.392513,28.4760399 L3.79750514,28.4760399 L3.79750514,25.7640629 Z M13.9241858,25.7640629 L21.5191975,25.7640629 L21.5191975,28.4760399 L13.9241858,28.4760399 L13.9241858,25.7640629 Z" id="Shape"></path>
            </g>
        </g>
    </g>
</svg>