<?xml version="1.0" encoding="UTF-8"?>
<svg width="22px" height="20px" viewBox="0 0 22 20" version="1.1" xmlns="http://www.w3.org/2000/svg" xmlns:xlink="http://www.w3.org/1999/xlink">
    <!-- Generator: Sketch 52.5 (67469) - http://www.bohemiancoding.com/sketch -->
    <title>Reprendre</title>
    <desc>Created with Sketch.</desc>
    <g id="Symbols" stroke="none" stroke-width="1" fill="none" fill-rule="evenodd">
        <g id="TEXTE-Symbol" transform="translate(-39.003906, -7.000000)" fill="#D3D3D3">
            <g id="TEXTE" transform="translate(1.007812, 1.000000)">
                <g id="Reprendre" transform="translate(49.437542, 16.500244) scale(-1, 1) translate(-49.437542, -16.500244) translate(39.544029, 6.947754)">
                    <g id="Group">
                        <path d="M8.28042269,0 C8.04474818,-0.101902196 7.77085821,-0.0460206587 7.58932517,0.141348129 L0,6.29491436 C-0.248413102,6.54802505 -0.248413102,6.96549544 0,7.22189312 L7.58932517,13.3458749 C7.7103468,13.4707862 7.87277122,13.539817 8.03837943,13.539817 C8.12118324,13.539817 8.20398823,13.5200939 8.28042269,13.4872229 C8.5192804,13.3853199 8.65941065,13.1486442 8.65941065,12.882385 L8.65941065,9.21391385 C16.7774101,9.21391385 20.3252534,11.5773814 19.7870255,19.1049805 C23.2234015,7.06410967 16.6245412,4.34234007 8.65941065,4.34234007 L8.65941065,0.604837666 C8.65941065,0.338577813 8.5192804,0.101902196 8.28042269,0 Z" id="Shape"></path>
                    </g>
                </g>
            </g>
        </g>
    </g>
</svg>