<?xml version="1.0" encoding="UTF-8"?>
<svg width="22px" height="23px" viewBox="0 0 22 23" version="1.1" xmlns="http://www.w3.org/2000/svg" xmlns:xlink="http://www.w3.org/1999/xlink">
    <!-- Generator: Sketch 52.5 (67469) - http://www.bohemiancoding.com/sketch -->
    <title>Auteur</title>
    <desc>Created with Sketch.</desc>
    <g id="FORUM" stroke="none" stroke-width="1" fill="#c5c5c5" fill-rule="evenodd">
        <g id="Forum" transform="translate(-392.000244, -608.000000)" fill="#c5c5c5">
            <g id="Auteur" transform="translate(392.000000, 608.000000)">
                <g id="Group">
                    <path d="M10.7659588,0 C8.24321446,0.0464052497 6.63169568,1.06520515 5.93983884,2.64930298 C5.27962281,4.15746517 5.42727511,6.06217948 5.90609005,8.03228158 C5.6487534,8.33391398 5.44414918,8.73890316 5.51797549,9.34849608 C5.5981299,10.0129314 5.78164024,10.4854186 6.04108648,10.816581 C6.18451994,10.9979828 6.37224944,11.0148573 6.54732275,11.1034487 C6.64224229,11.6687449 6.80044089,12.2340425 7.03668431,12.7065296 C7.17168073,12.9786313 7.32566081,13.2296402 7.47542237,13.4321355 C7.54292058,13.5228361 7.63994906,13.5755694 7.71166643,13.6515039 C7.71588495,14.3180484 7.71799389,14.8727996 7.66104229,15.5752015 C7.48596898,15.999175 7.07676119,16.3408845 6.41232633,16.6720476 C5.72679823,17.0137571 4.83455665,17.3301542 3.93176846,17.7182689 C3.0289806,18.1063836 2.10088066,18.5788707 1.366838,19.3213497 C0.63279538,20.0638301 0.113903426,21.0826305 0.0337490861,22.4262659 L0,23 L21.666914,23 L21.6331646,22.4262659 C21.5530095,21.0826305 21.0320081,20.0638301 20.3000757,19.3213497 C19.5681419,18.5788707 18.6505883,18.1063836 17.7520189,17.7182689 C16.8534496,17.3301542 15.9717556,17.0137571 15.2883364,16.6720476 C14.6323386,16.342993 14.2189123,16.0097214 14.0396205,15.592076 C13.9805587,14.8812361 13.9847778,14.3243765 13.9889957,13.6515039 C14.0607124,13.5734596 14.1577415,13.5228361 14.2252404,13.4321355 C14.3728917,13.2275318 14.5142163,12.9765229 14.6471037,12.7065296 C14.8770191,12.2340425 15.0436547,11.6666365 15.1364647,11.1034487 C15.3052105,11.0148573 15.4866113,10.9937639 15.6258269,10.816581 C15.8852725,10.4854186 16.0687834,10.0129314 16.1489372,9.34849608 C16.2206539,8.75788748 16.0223791,8.36766365 15.7776974,8.06603125 C16.0413621,7.20964769 16.3788538,5.8259359 16.2670596,4.40425548 C16.2058888,3.62802644 16.007614,2.85390688 15.5414539,2.21056499 C15.1153714,1.61995605 14.4235152,1.18965521 13.5502583,1.01247253 C12.9828512,0.276320752 11.9619417,0 10.7828328,0 L10.7659588,0 Z M10.782833,1.07997072 C10.7891607,1.07997072 10.7933791,1.07997072 10.7997074,1.07997072 C11.8860061,1.08418961 12.590518,1.40269598 12.7909032,1.75495223 L12.9259002,1.97432118 L13.1790182,2.00807023 C13.9299353,2.11142651 14.3602359,2.41516813 14.6639775,2.83492252 C14.967719,3.25467675 15.1364647,3.84106681 15.1870883,4.48862708 C15.2883355,5.78374856 14.9149862,7.29190985 14.6808524,7.99853099 L14.5458565,8.4203941 L14.9170954,8.63976337 C14.8938929,8.62499776 15.1238094,8.78108747 15.0689662,9.23037197 C15.0056873,9.75981084 14.8791283,10.0340216 14.7820996,10.1584716 C14.6850708,10.2829215 14.6344472,10.2765933 14.6302288,10.2765933 L14.1746164,10.3103423 L14.1239928,10.7490802 C14.0733692,11.2152395 13.8856393,11.7868641 13.6683793,12.2340394 C13.5586952,12.4576277 13.4469019,12.6537939 13.3477639,12.790899 C13.2486259,12.9280054 13.1452684,13.0039401 13.195892,12.9765193 L12.9090253,13.12839 L12.9090253,13.4490062 C12.9090253,14.2315633 12.8773858,14.8727957 12.9596489,15.7776923 L12.9596489,15.8451902 L12.9933976,15.9126882 C13.3013587,16.74165 14.0143076,17.2584325 14.7989745,17.6507663 C15.5836402,18.0430988 16.4843189,18.3320758 17.3301555,18.6969876 C18.1759921,19.0618993 18.9501118,19.4985274 19.5238463,20.0806999 C19.9794587,20.5426396 20.2663265,21.154342 20.4181973,21.9200243 L1.248716,21.9200243 C1.40058688,21.1564512 1.68534481,20.5426396 2.14306677,20.0806999 C2.71891056,19.4985274 3.50357676,19.0618993 4.35363181,18.6969876 C5.20368716,18.3320758 6.09803758,18.0430988 6.88481314,17.6507663 C7.6715887,17.2584325 8.39930378,16.74165 8.70726381,15.9126882 L8.74101306,15.7776923 C8.8232767,14.8727957 8.79163666,14.2315633 8.79163666,13.4490062 L8.79163666,13.12839 L8.50476942,12.9765193 C8.55328379,13.0018309 8.43727148,12.9280054 8.33602428,12.790899 C8.23477708,12.6537939 8.11032731,12.4576277 7.99853344,12.2340394 C7.77494569,11.7868641 7.59143486,11.2110211 7.54292048,10.7490802 L7.49229689,10.3103423 L7.0366845,10.2765933 C7.03246549,10.2765933 6.98184189,10.2829215 6.88481314,10.1584716 C6.78778496,10.0340216 6.66122596,9.75981084 6.59794589,9.23037197 C6.54521307,8.78108747 6.77301926,8.62499776 6.74981726,8.63976337 L7.10418244,8.4203941 L7.00293525,8.03227996 C6.49458948,6.07483354 6.40599818,4.29667921 6.93543674,3.0880406 C7.46276664,1.88362031 8.53851867,1.12637595 10.782833,1.07997072 Z" id="Shape"></path>
                </g>
            </g>
        </g>
    </g>
</svg>