<?xml version="1.0" encoding="UTF-8"?>
<svg width="20px" height="24px" viewBox="0 0 20 24" version="1.1" xmlns="http://www.w3.org/2000/svg" xmlns:xlink="http://www.w3.org/1999/xlink">
    <!-- Generator: Sketch 52.5 (67469) - http://www.bohemiancoding.com/sketch -->
    <title>Supprimer</title>
    <desc>Created with Sketch.</desc>
    <g id="ACCUEIL" stroke="none" stroke-width="1" fill="none" fill-rule="evenodd">
        <g id="Accueil-Bourses-B" transform="translate(-749.000488, -240.000000)" fill="#FF7667">
            <g id="Supprimer" transform="translate(749.800781, 240.000000)">
                <path d="M7.20000029,0 L6.00000024,1.19999953 L0,1.19999953 L0,3.59999847 L19.2000008,3.59999847 L19.2000008,1.19999953 L13.2000005,1.19999953 L12.0000005,0 L7.20000029,0 Z M1.20000005,6 L1.20000005,21.6000012 C1.20000005,22.920001 2.28000018,24 3.60000005,24 L15.6000005,24 C16.9200006,24 17.9999993,22.920001 17.9999993,21.6000012 L17.9999993,6 L1.20000005,6 Z M6.49218776,9.60000038 L9.60000038,12.707813 L12.707813,9.60000038 L14.4000006,11.2921879 L11.2921879,14.4000006 L14.4000006,17.5078132 L12.707813,19.2000008 L9.60000038,16.0921881 L6.49218776,19.2000008 L4.80000019,17.5078132 L7.90781281,14.4000006 L4.80000019,11.2921879 L6.49218776,9.60000038 Z" id="Shape"></path>
            </g>
        </g>
    </g>
</svg>