<?xml version="1.0" encoding="UTF-8"?>
<svg width="121px" height="125px" viewBox="0 0 121 125" version="1.1" xmlns="http://www.w3.org/2000/svg" xmlns:xlink="http://www.w3.org/1999/xlink">
    <!-- Generator: Sketch 52.5 (67469) - http://www.bohemiancoding.com/sketch -->
    <title>Trouver Bourse</title>
    <desc>Created with Sketch.</desc>
    <defs>
        <path d="M0.454833984,60 C0.454833984,26.8629134 27.3177474,0 60.454834,0 C93.591917,0 120.454834,26.8629134 120.454834,60 C120.454834,93.1370831 93.591917,120 60.454834,120 C27.3177474,120 0.454833984,93.1370831 0.454833984,60 Z" id="path-1"></path>
        <filter x="-2.1%" y="-2.1%" width="104.2%" height="108.3%" filterUnits="objectBoundingBox" id="filter-2">
            <feOffset dx="0" dy="5" in="SourceAlpha" result="shadowOffsetOuter1"></feOffset>
            <feComposite in="shadowOffsetOuter1" in2="SourceAlpha" operator="out" result="shadowOffsetOuter1"></feComposite>
            <feColorMatrix values="0 0 0 0 0.607843137   0 0 0 0 0.909803922   0 0 0 0 0.878431373  0 0 0 1 0" type="matrix" in="shadowOffsetOuter1"></feColorMatrix>
        </filter>
    </defs>
    <g id="HOMEPAGES-" stroke="none" stroke-width="1" fill="none" fill-rule="evenodd">
        <g id="Home-Etudiants" transform="translate(-344.000000, -978.000000)">
            <g id="Trouver-Bourse" transform="translate(344.000000, 978.000000)">
                <g id="Oval">
                    <use fill="black" fill-opacity="1" filter="url(#filter-2)" xlink:href="#path-1"></use>
                    <use fill="#DAF2F0" fill-rule="evenodd" xlink:href="#path-1"></use>
                </g>
                <g id="icons8_scholarship_1" transform="translate(34.795654, 36.000000)" fill="#3DC5B7">
                    <path d="M24.9325504,0 L0,13.9090931 L24.9325504,13.9090931 L24.9325504,16.2272739 L4.53319112,16.2272739 L0,13.9090931 L0,32.4545479 L4.53319112,32.4545479 L4.53319112,16.4762985 L24.9325504,27.8181861 L49.8651009,13.9090931 L24.9325504,0 Z M9.06638241,22.7199974 L9.06638241,32.9163682 C9.06638241,32.9163682 13.5995714,41.7272644 24.9325442,41.7272644 C27.5595276,41.7272644 29.8079891,41.2417532 31.7323267,40.5138421 L31.7323267,37.0909037 L31.7323267,32.4545429 C31.7323267,30.7414072 32.0809922,29.1379529 32.6929731,27.6914049 L24.9325442,32.4545429 L9.06638241,22.7199974 Z M40.7987202,23.1818161 L40.7987202,25.9618235 C38.5321249,26.6572785 36.2655296,28.7454521 36.2655296,32.4545443 C36.2655296,36.8590892 39.8911966,38.2509066 42.157792,39.1781785 C44.8777037,40.3372684 45.3319107,40.568181 45.3319107,41.7272726 C45.3319107,42.8863641 44.8785897,44.045454 43.0653152,44.045454 C41.2520408,44.045454 40.7987202,42.8863641 40.7987202,41.7272726 L36.2655296,41.7272726 C36.2655296,44.045454 37.6254877,47.2927213 40.7987202,48.2199932 L40.7987202,51 L45.3319107,51 L45.3319107,48.2199932 C48.5051434,47.2927213 49.8651009,44.045454 49.8651009,41.7272726 C49.8651009,37.3227277 46.2394339,35.9309112 43.9728393,35.0036393 C41.2529272,33.8445477 40.7987202,33.6136351 40.7987202,32.4545443 C40.7987202,30.599998 41.9320179,30.1363621 43.0653152,30.1363621 C44.8785897,30.1363621 45.3319107,31.2954536 45.3319107,32.4545443 L47.5985062,32.4545443 L49.8651009,32.4545443 C49.8651009,30.1363621 48.5051434,26.8890977 45.3319107,25.9618235 L45.3319107,23.1818161 L40.7987202,23.1818161 Z" id="Shape"></path>
                </g>
            </g>
        </g>
    </g>
</svg>