<?xml version="1.0" encoding="UTF-8"?>
<svg width="23px" height="22px" viewBox="0 0 23 22" version="1.1" xmlns="http://www.w3.org/2000/svg" xmlns:xlink="http://www.w3.org/1999/xlink">
    <!-- Generator: Sketch 52.5 (67469) - http://www.bohemiancoding.com/sketch -->
    <title>Turnover</title>
    <desc>Created with Sketch.</desc>
    <g id="EMPLOI" stroke="none" stroke-width="1" fill="none" fill-rule="evenodd">
        <g id="Emploi-Page-Entreprise" transform="translate(-713.000000, -604.000000)" fill="#3C3850">
            <g id="Turnover" transform="translate(713.000000, 604.000000)">
                <g id="Group">
                    <path d="M11.0378733,0.00386455911 C8.23197234,-0.0724187813 5.64497025,0.985598044 3.66160178,2.73679823 L2.12266755,1.19786474 L0.849066734,6.7167987 L6.36800353,5.44319853 L4.90866935,3.98386522 C6.49735404,2.55106489 8.65318818,1.62239803 11.0378733,1.62239803 C16.1322762,1.62239803 20.3776121,5.78149906 20.3776121,10.9621326 L21.9961469,12.5806661 C22.0823797,12.0699002 22.0757475,11.5525 22.0757475,11.0417327 C22.0757475,4.92911477 17.1504935,0.00386455911 11.0378733,0.00386455911 Z M10.6929413,3.87773156 C10.0362414,3.87773156 9.3032568,4.16959827 8.83560631,5.01866498 C8.32484016,5.86773185 8.1457391,6.97549941 8.57027286,7.91079874 C8.57027286,7.99703286 8.4110727,7.83119883 8.4110727,8.25573211 C8.32484016,8.6802654 8.58685632,9.27394904 8.75600646,9.52933236 C8.84224056,9.61556647 8.98817392,9.68189954 9.07440647,9.76813211 C9.07440647,9.76813211 9.17059008,10.5475493 9.76427367,11.2274655 C9.85050808,11.8211495 9.33974022,12.0765328 9.33974022,12.0765328 C7.5553728,12.4148336 5.86387062,13.4131494 5.86387062,14.5175993 L5.86387062,15.3666659 C5.86387062,16.5540332 8.57027286,16.8259997 11.1174748,16.8259997 C13.5784445,16.8259997 16.2914791,16.1294995 16.2914791,15.3666659 L16.2914791,14.5175993 C16.2914791,13.4131494 14.5999777,12.4148336 12.8156098,12.0765328 C12.8156098,12.0765328 12.1323763,11.9073825 12.4706759,11.2274655 C12.8952097,10.7166996 13.1605431,10.0168824 13.1605431,9.84773242 C13.1605431,9.84773242 13.8504103,9.44309979 13.8504103,8.6802654 C13.8504103,7.91743294 13.6646767,7.91079874 13.6646767,7.91079874 C13.9200606,7.1479659 13.9996605,4.176232 12.0461422,4.51453164 C11.92011,4.176232 11.3496426,3.87773156 10.6929413,3.87773156 Z M0.0796000654,9.34359932 C0.0796000654,9.93728268 0,10.4513669 0,10.9621327 C0,17.0747493 4.92525365,21.9999992 11.0378756,21.9999992 C13.9001617,21.9999992 16.4340969,20.882283 18.3610824,19.1343998 L19.9530834,20.7263994 L21.2266846,15.2074662 L15.7077468,16.4810664 L17.1670806,17.9403992 C15.5021124,19.3599331 13.3927117,20.3018659 11.0378756,20.3018659 C5.9434717,20.3018659 1.69813473,16.142766 1.69813473,10.9621327 L0.0796000654,9.34359932 Z" id="Shape"></path>
                </g>
            </g>
        </g>
    </g>
</svg>