<?xml version="1.0" encoding="UTF-8"?>
<svg width="73px" height="69px" viewBox="0 0 73 69" version="1.1" xmlns="http://www.w3.org/2000/svg" xmlns:xlink="http://www.w3.org/1999/xlink">
    <!-- Generator: Sketch 52.5 (67469) - http://www.bohemiancoding.com/sketch -->
    <title>Player</title>
    <desc>Created with Sketch.</desc>
    <g id="Symbols" stroke="none" stroke-width="1" fill="none" fill-rule="evenodd">
        <g id="VIGNETTE-EMPLOI-VIDEO" transform="translate(-349.759766, -218.000000)">
            <g id="Mask-group">
                <g id="Player" transform="translate(350.000000, 218.000000)">
                    <path d="M0.625,34.5 C0.625,15.4461752 16.5538477,0 36.2030792,0 C55.8523087,0 71.7811584,15.4461752 71.7811584,34.5 C71.7811584,53.5538228 55.8523087,69 36.2030792,69 C16.5538477,69 0.625,53.5538228 0.625,34.5 Z" id="Oval" fill="#FF7667"></path>
                    <g id="icons8_play_filled" transform="translate(27.559570, 20.999756)" fill="#FFFFFF">
                        <g id="Group">
                            <path d="M0,0 L0,27 L19.4400043,13.5013357 L0,0 Z" id="Shape"></path>
                        </g>
                    </g>
                </g>
            </g>
        </g>
    </g>
</svg>