<?xml version="1.0" encoding="UTF-8"?>
<svg width="21px" height="21px" viewBox="0 0 21 21" version="1.1" xmlns="http://www.w3.org/2000/svg" xmlns:xlink="http://www.w3.org/1999/xlink">
    <!-- Generator: Sketch 52.5 (67469) - http://www.bohemiancoding.com/sketch -->
    <title>Visiter page</title>
    <desc>Created with Sketch.</desc>
    <g id="EMPLOI" stroke="none" stroke-width="1" fill="none" fill-rule="evenodd">
        <g id="Emploi-Page-Job" transform="translate(-1254.000000, -899.000000)" fill="#3DC5B7">
            <g id="Visiter-page" transform="translate(1254.000488, 899.000000)">
                <path d="M2.33333335,0 C1.04416664,0 0,1.04416664 0,2.33333335 L0,4.6666667 L0,16.0507817 L2.33333335,13.7174472 L2.33333335,4.6666667 L18.6666668,4.6666667 L18.6666668,18.6666668 L7.28255215,18.6666668 L4.94921865,21 L18.6666668,21 C19.9535007,21 21,19.9535007 21,18.6666668 L21,3.5000001 L21,2.33333335 C21,1.04416664 19.9558327,0 18.6666668,0 L2.33333335,0 Z M5.06770823,9.33333302 L7.54231785,11.8079421 L0.259765625,19.0904925 L1.90950514,20.7402318 L9.19205737,13.4576811 L11.6666663,15.93229 L11.666667,9.33333302 L5.06770823,9.33333302 Z" id="Shape"></path>
            </g>
        </g>
    </g>
</svg>