<?xml version="1.0" encoding="UTF-8"?>
<svg width="127px" height="124px" viewBox="0 0 127 124" version="1.1" xmlns="http://www.w3.org/2000/svg" xmlns:xlink="http://www.w3.org/1999/xlink">
    <!-- Generator: Sketch 52.5 (67469) - http://www.bohemiancoding.com/sketch -->
    <title>Profil etablissement</title>
    <desc>Created with Sketch.</desc>
    <g id="MAIN-HOMEPAGE" stroke="none" stroke-width="1" fill="none" fill-rule="evenodd">
        <g id="Home-principale-VERS1-copy" transform="translate(-1199.000000, -2844.000000)">
            <g id="Profil-etablissement" transform="translate(1199.000000, 2844.000000)">
                <path d="M-2.48689958e-13,61.9468994 C-2.48689958e-13,27.7963244 28.3806472,0.111816406 63.3899536,0.111816406 C98.3992562,0.111816406 126.779907,27.7963244 126.779907,61.9468994 C126.779907,96.0974708 98.3992562,123.781982 63.3899536,123.781982 C28.3806472,123.781982 -2.48689958e-13,96.0974708 -2.48689958e-13,61.9468994 Z" id="Oval" fill="#FF7667"></path>
                <g id="icons8_university_3" transform="translate(37.000000, 33.502441)">
                    <g id="Group">
                        <path d="M25.4218365,3.94970703 L4.06762695,13.8590336 L48.8097839,13.8590336 L25.4218365,3.94970703 Z" id="New-shape" fill="#FFCAC4"></path>
                        <path d="M25.9301167,0 L0,11.2305705 L0,18.2496765 L2.5930117,18.2496765 L2.5930117,46.3261023 L0,46.3261023 L0,51.9413872 L51.8602333,51.9413872 L51.8602333,46.3261023 L49.267221,46.3261023 L49.267221,18.2496765 L51.8602333,18.2496765 L51.8602333,11.2305705 L25.9301167,0 Z M25.9299918,6.04846191 L41.1436768,12.6343632 L10.7163086,12.6343632 L25.9299918,6.04846191 Z M7.77905273,18.2496338 L12.9650822,18.2496338 L12.9650822,46.3260918 L7.77905273,46.3260918 L7.77905273,18.2496338 Z M18.151123,18.2496338 L23.337141,18.2496338 L23.337141,46.3260918 L18.151123,46.3260918 L18.151123,18.2496338 Z M28.5231934,18.2496338 L33.709198,18.2496338 L33.709198,46.3260918 L28.5231934,46.3260918 L28.5231934,18.2496338 Z M38.8950195,18.2496338 L44.0810318,18.2496338 L44.0810318,46.3260918 L38.8950195,46.3260918 L38.8950195,18.2496338 Z" id="Shape" fill="#FFFFFF"></path>
                    </g>
                </g>
            </g>
        </g>
    </g>
</svg>